G04*
G04 #@! TF.GenerationSoftware,Altium Limited,Altium Designer,18.1.7 (191)*
G04*
G04 Layer_Physical_Order=2*
G04 Layer_Color=16711680*
%FSLAX25Y25*%
%MOIN*%
G70*
G01*
G75*
%ADD16C,0.00787*%
%ADD58C,0.01575*%
%ADD63C,0.01772*%
%ADD66C,0.03150*%
%ADD67C,0.21654*%
%ADD68C,0.05906*%
%ADD69R,0.05906X0.05906*%
%ADD70C,0.02362*%
G36*
X247442Y221389D02*
X249500Y220765D01*
X251396Y219751D01*
X253059Y218387D01*
X254423Y216724D01*
X255437Y214828D01*
X256061Y212770D01*
X256276Y210589D01*
Y16926D01*
X254301D01*
X254208Y17312D01*
X253521Y18970D01*
X252584Y20500D01*
X251419Y21864D01*
X250055Y23029D01*
X248525Y23966D01*
X246868Y24653D01*
X245123Y25072D01*
X243335Y25212D01*
X241546Y25072D01*
X239802Y24653D01*
X238144Y23966D01*
X236615Y23029D01*
X235250Y21864D01*
X234085Y20500D01*
X233148Y18970D01*
X232461Y17312D01*
X232368Y16926D01*
X181943D01*
Y75801D01*
X181929Y75835D01*
X181939Y75870D01*
X181866Y76524D01*
X181831Y76587D01*
X181835Y76659D01*
X181617Y77280D01*
X181570Y77334D01*
X181558Y77405D01*
X181207Y77962D01*
X181149Y78004D01*
X181121Y78070D01*
X180656Y78536D01*
X180589Y78563D01*
X180547Y78622D01*
X179990Y78972D01*
X179919Y78984D01*
X179866Y79032D01*
X179244Y79250D01*
X179173Y79246D01*
X179110Y79281D01*
X178456Y79354D01*
X178420Y79344D01*
X178386Y79358D01*
X176995D01*
X176961Y79344D01*
X176925Y79354D01*
X176137Y79265D01*
X176074Y79230D01*
X176002Y79234D01*
X175253Y78972D01*
X175199Y78925D01*
X175128Y78912D01*
X174457Y78490D01*
X174415Y78432D01*
X174348Y78404D01*
X173787Y77843D01*
X173760Y77776D01*
X173701Y77735D01*
X173279Y77063D01*
X173267Y76992D01*
X173219Y76938D01*
X172957Y76189D01*
X172961Y76117D01*
X172926Y76055D01*
X172837Y75266D01*
X172847Y75231D01*
X172833Y75197D01*
Y16926D01*
X162992D01*
Y837D01*
X31496D01*
Y23622D01*
X49954D01*
X50435Y22835D01*
X50355Y22433D01*
X50491Y21749D01*
X50879Y21170D01*
X51458Y20783D01*
X52142Y20647D01*
X52472Y20712D01*
X52992Y20192D01*
X53311Y19979D01*
X53687Y19904D01*
X97570D01*
X97648Y19117D01*
X97358Y19059D01*
X96636Y18577D01*
X96154Y17855D01*
X96084Y17504D01*
X100333D01*
X100263Y17855D01*
X99781Y18577D01*
X99060Y19059D01*
X98770Y19117D01*
X98847Y19904D01*
X104813D01*
X105221Y19117D01*
X105058Y18873D01*
X104922Y18189D01*
X105058Y17505D01*
X105446Y16926D01*
X106025Y16539D01*
X106709Y16403D01*
X107392Y16539D01*
X107972Y16926D01*
X108159Y17206D01*
X149734D01*
X150111Y17280D01*
X150430Y17494D01*
X156558Y23622D01*
X165656Y32720D01*
X165869Y33039D01*
X165944Y33415D01*
Y72719D01*
X174132Y80906D01*
X184023D01*
X184430Y80119D01*
X184171Y79731D01*
X184101Y79380D01*
X188350D01*
X188280Y79731D01*
X188021Y80119D01*
X188429Y80906D01*
X190347D01*
X190758Y80315D01*
X190811Y80119D01*
X190694Y79528D01*
X190830Y78844D01*
X191095Y78447D01*
Y67121D01*
X191200Y66591D01*
X191501Y66142D01*
X194055Y63588D01*
X194504Y63288D01*
X195034Y63182D01*
X195034Y63182D01*
X206006D01*
X206403Y62917D01*
X207087Y62781D01*
X207770Y62917D01*
X208350Y63304D01*
X208488Y63511D01*
X209324Y63345D01*
X209373Y63096D01*
X209760Y62516D01*
X210340Y62129D01*
X211024Y61993D01*
X211707Y62129D01*
X212287Y62516D01*
X212452Y62764D01*
X213288Y62598D01*
X213310Y62486D01*
X213698Y61907D01*
X214277Y61520D01*
X214961Y61384D01*
X215644Y61520D01*
X216078Y61809D01*
X229041D01*
X229417Y61884D01*
X229736Y62098D01*
X230858Y63219D01*
X231712Y62960D01*
X231744Y62799D01*
X232226Y62077D01*
X232948Y61595D01*
X233299Y61525D01*
Y63650D01*
X233799D01*
Y64150D01*
X235923D01*
X235853Y64501D01*
X235371Y65222D01*
X234650Y65704D01*
X234489Y65736D01*
X234229Y66591D01*
X239878Y72239D01*
X240666Y71913D01*
Y66918D01*
X236683Y62935D01*
X236282Y63150D01*
X234299D01*
Y61166D01*
X234513Y60765D01*
X232162Y58414D01*
X188771D01*
X188395Y58339D01*
X188076Y58126D01*
X184209Y54259D01*
X183996Y53940D01*
X183921Y53564D01*
Y24285D01*
X183641Y24098D01*
X183254Y23518D01*
X183118Y22835D01*
X183254Y22151D01*
X183641Y21572D01*
X184221Y21184D01*
X184904Y21048D01*
X185588Y21184D01*
X186167Y21572D01*
X186555Y22151D01*
X186690Y22835D01*
X186555Y23518D01*
X186167Y24098D01*
X186058Y24171D01*
X186080Y24870D01*
X186772Y25225D01*
X186927Y25121D01*
X187610Y24985D01*
X188294Y25121D01*
X188874Y25508D01*
X189261Y26088D01*
X189397Y26772D01*
X189261Y27455D01*
X188874Y28035D01*
X188594Y28222D01*
Y51551D01*
X191177Y54135D01*
X227001D01*
X227412Y53543D01*
X227465Y53347D01*
X227348Y52756D01*
X227484Y52072D01*
X227871Y51493D01*
X228450Y51106D01*
X229134Y50970D01*
X229817Y51106D01*
X230397Y51493D01*
X230584Y51772D01*
X233929D01*
X234305Y51847D01*
X234879Y51285D01*
X235267Y50705D01*
X235846Y50318D01*
X235922Y50303D01*
X236138Y49600D01*
X235595Y49028D01*
X235415Y49064D01*
X234732Y48928D01*
X234152Y48541D01*
X233765Y47961D01*
X233629Y47278D01*
X233765Y46594D01*
X234152Y46014D01*
X234732Y45627D01*
X235415Y45491D01*
X236099Y45627D01*
X236545Y45926D01*
X237036Y45775D01*
X237298Y45600D01*
X237298Y44842D01*
X237053Y44678D01*
X236666Y44098D01*
X236530Y43415D01*
X236666Y42731D01*
X237053Y42152D01*
X237632Y41764D01*
X238316Y41628D01*
X239000Y41764D01*
X239579Y42152D01*
X239966Y42731D01*
X240102Y43415D01*
X239966Y44098D01*
X239579Y44678D01*
X239300Y44865D01*
Y46176D01*
X241578Y48455D01*
X242432Y48195D01*
X242444Y48135D01*
X242831Y47556D01*
X243411Y47169D01*
X244094Y47033D01*
X244778Y47169D01*
X245358Y47556D01*
X245745Y48135D01*
X245881Y48819D01*
X245815Y49149D01*
X252559Y55893D01*
X252772Y56212D01*
X252847Y56588D01*
Y139869D01*
X252772Y140245D01*
X252559Y140564D01*
X232449Y160674D01*
X232709Y161528D01*
X232726Y161532D01*
X233306Y161919D01*
X233693Y162498D01*
X233829Y163182D01*
X233693Y163866D01*
X233306Y164445D01*
X232726Y164832D01*
X232258Y164926D01*
X220418Y176765D01*
X220434Y176849D01*
X220298Y177533D01*
X220149Y177757D01*
X220570Y178544D01*
X233178D01*
X233365Y178264D01*
X233944Y177877D01*
X234628Y177741D01*
X235311Y177877D01*
X235891Y178264D01*
X236278Y178844D01*
X236414Y179528D01*
X236278Y180211D01*
X235891Y180791D01*
X235311Y181178D01*
X234628Y181314D01*
X233944Y181178D01*
X233365Y180791D01*
X233178Y180511D01*
X214657D01*
X201923Y193245D01*
X201604Y193458D01*
X201228Y193533D01*
X175872D01*
X174671Y194734D01*
Y197960D01*
X175464Y198288D01*
X176201Y198853D01*
X176765Y199589D01*
X177120Y200446D01*
X177242Y201366D01*
X177120Y202286D01*
X176765Y203143D01*
X176201Y203879D01*
X175464Y204444D01*
X174607Y204799D01*
X173688Y204920D01*
X172768Y204799D01*
X171911Y204444D01*
X171174Y203879D01*
X170610Y203143D01*
X170255Y202286D01*
X170133Y201366D01*
X170255Y200446D01*
X170610Y199589D01*
X171174Y198853D01*
X171911Y198288D01*
X172704Y197960D01*
Y194327D01*
X172779Y193950D01*
X172992Y193631D01*
X174198Y192425D01*
X173872Y191638D01*
X154084D01*
X150754Y194968D01*
Y197643D01*
X151541Y198031D01*
X151694Y197913D01*
X152656Y197515D01*
X153188Y197445D01*
Y201366D01*
Y205287D01*
X152656Y205217D01*
X151694Y204819D01*
X151541Y204701D01*
X150754Y205090D01*
Y207041D01*
X151974Y208262D01*
X152768Y207933D01*
X153688Y207812D01*
X154607Y207933D01*
X155464Y208288D01*
X156201Y208853D01*
X156765Y209589D01*
X157120Y210446D01*
X157241Y211366D01*
X157120Y212286D01*
X156765Y213143D01*
X156201Y213879D01*
X155464Y214444D01*
X154607Y214799D01*
X153688Y214920D01*
X152768Y214799D01*
X151910Y214444D01*
X151174Y213879D01*
X150610Y213143D01*
X150254Y212286D01*
X150133Y211366D01*
X150254Y210446D01*
X150583Y209653D01*
X149075Y208144D01*
X148862Y207825D01*
X148787Y207449D01*
Y194561D01*
X148862Y194184D01*
X149075Y193865D01*
X152110Y190830D01*
X151808Y190103D01*
X148557D01*
X144671Y193989D01*
Y197960D01*
X145465Y198288D01*
X146201Y198853D01*
X146765Y199589D01*
X147120Y200446D01*
X147241Y201366D01*
X147120Y202286D01*
X146765Y203143D01*
X146201Y203879D01*
X145465Y204444D01*
X144607Y204799D01*
X143687Y204920D01*
X142768Y204799D01*
X141911Y204444D01*
X141174Y203879D01*
X140610Y203143D01*
X140254Y202286D01*
X140133Y201366D01*
X140254Y200446D01*
X140610Y199589D01*
X141174Y198853D01*
X141911Y198288D01*
X142704Y197960D01*
Y193582D01*
X142779Y193205D01*
X142992Y192886D01*
X146656Y189223D01*
X146354Y188495D01*
X138486D01*
X137834Y189147D01*
Y193701D01*
X134671D01*
Y197960D01*
X135465Y198288D01*
X136201Y198853D01*
X136765Y199589D01*
X137120Y200446D01*
X137241Y201366D01*
X137120Y202286D01*
X136765Y203143D01*
X136201Y203879D01*
X135465Y204444D01*
X134607Y204799D01*
X133687Y204920D01*
X132768Y204799D01*
X131911Y204444D01*
X131174Y203879D01*
X130610Y203143D01*
X130397Y202629D01*
X129609Y202786D01*
Y205897D01*
X131974Y208262D01*
X132768Y207933D01*
X133687Y207812D01*
X134607Y207933D01*
X135465Y208288D01*
X136201Y208853D01*
X136765Y209589D01*
X137120Y210446D01*
X137241Y211366D01*
X137120Y212286D01*
X136765Y213143D01*
X136201Y213879D01*
X135465Y214444D01*
X134607Y214799D01*
X133687Y214920D01*
X132768Y214799D01*
X131911Y214444D01*
X131174Y213879D01*
X130610Y213143D01*
X130254Y212286D01*
X130133Y211366D01*
X130254Y210446D01*
X130583Y209653D01*
X127931Y207000D01*
X127717Y206681D01*
X127643Y206305D01*
Y203083D01*
X126855Y202926D01*
X126765Y203143D01*
X126201Y203879D01*
X125464Y204444D01*
X124607Y204799D01*
X123688Y204920D01*
X122768Y204799D01*
X121911Y204444D01*
X121174Y203879D01*
X121121Y203810D01*
X120334Y204077D01*
Y205703D01*
X120259Y206080D01*
X120046Y206399D01*
X116792Y209653D01*
X117120Y210446D01*
X117242Y211366D01*
X117120Y212286D01*
X116765Y213143D01*
X116201Y213879D01*
X115464Y214444D01*
X114607Y214799D01*
X113688Y214920D01*
X112768Y214799D01*
X111910Y214444D01*
X111174Y213879D01*
X110610Y213143D01*
X110255Y212286D01*
X110133Y211366D01*
X110255Y210446D01*
X110610Y209589D01*
X111174Y208853D01*
X111910Y208288D01*
X112424Y208075D01*
X112267Y207288D01*
X109156D01*
X106792Y209653D01*
X107120Y210446D01*
X107241Y211366D01*
X107120Y212286D01*
X106765Y213143D01*
X106201Y213879D01*
X105464Y214444D01*
X104607Y214799D01*
X103688Y214920D01*
X102768Y214799D01*
X101910Y214444D01*
X101174Y213879D01*
X100610Y213143D01*
X100254Y212286D01*
X100134Y211366D01*
X100254Y210446D01*
X100610Y209589D01*
X101174Y208853D01*
X101665Y208477D01*
X101397Y207689D01*
X96683D01*
X96415Y208477D01*
X96507Y208547D01*
X97140Y209373D01*
X97539Y210334D01*
X97609Y210866D01*
X89766D01*
X89837Y210334D01*
X90235Y209373D01*
X90868Y208547D01*
X90960Y208477D01*
X90692Y207689D01*
X85978D01*
X85710Y208477D01*
X86201Y208853D01*
X86765Y209589D01*
X87120Y210446D01*
X87242Y211366D01*
X87120Y212286D01*
X86765Y213143D01*
X86201Y213879D01*
X85465Y214444D01*
X84607Y214799D01*
X83688Y214920D01*
X82768Y214799D01*
X81911Y214444D01*
X81174Y213879D01*
X80610Y213143D01*
X80255Y212286D01*
X80133Y211366D01*
X80255Y210446D01*
X80610Y209589D01*
X81174Y208853D01*
X81235Y208806D01*
X80901Y208070D01*
X80796Y208091D01*
X80113Y207955D01*
X79813Y207754D01*
X79339Y207667D01*
X78827Y207928D01*
X78825Y207931D01*
X76883Y209873D01*
X77120Y210446D01*
X77241Y211366D01*
X77120Y212286D01*
X76765Y213143D01*
X76201Y213879D01*
X75464Y214444D01*
X74607Y214799D01*
X73687Y214920D01*
X72768Y214799D01*
X71911Y214444D01*
X71174Y213879D01*
X70610Y213143D01*
X70254Y212286D01*
X70134Y211366D01*
X70254Y210446D01*
X70610Y209589D01*
X71174Y208853D01*
X71911Y208288D01*
X72768Y207933D01*
X73687Y207812D01*
X74607Y207933D01*
X75464Y208288D01*
X75590Y208384D01*
X77147Y206828D01*
Y204645D01*
X76879Y204453D01*
X76359Y204298D01*
X75681Y204819D01*
X74719Y205217D01*
X74187Y205287D01*
Y201366D01*
Y197445D01*
X74719Y197515D01*
X75681Y197913D01*
X76507Y198547D01*
X76564Y198622D01*
X77045Y198680D01*
X77549Y198613D01*
X80615Y195547D01*
X80289Y194759D01*
X72591D01*
X69427Y197923D01*
Y199266D01*
X70214Y199422D01*
X70235Y199373D01*
X70868Y198547D01*
X71694Y197913D01*
X72656Y197515D01*
X73188Y197445D01*
Y201366D01*
Y205287D01*
X72656Y205217D01*
X71694Y204819D01*
X70868Y204185D01*
X70235Y203360D01*
X70214Y203310D01*
X69427Y203467D01*
Y206610D01*
X69352Y206987D01*
X69139Y207306D01*
X66792Y209653D01*
X67120Y210446D01*
X67242Y211366D01*
X67120Y212286D01*
X66765Y213143D01*
X66201Y213879D01*
X65465Y214444D01*
X64607Y214799D01*
X63687Y214920D01*
X62768Y214799D01*
X61910Y214444D01*
X61174Y213879D01*
X60610Y213143D01*
X60255Y212286D01*
X60133Y211366D01*
X60255Y210446D01*
X60610Y209589D01*
X61174Y208853D01*
X61910Y208288D01*
X62768Y207933D01*
X63687Y207812D01*
X64607Y207933D01*
X65401Y208262D01*
X67460Y206203D01*
Y203477D01*
X67136Y203322D01*
X66672Y203264D01*
X66201Y203879D01*
X65465Y204444D01*
X64607Y204799D01*
X63687Y204920D01*
X62768Y204799D01*
X61910Y204444D01*
X61174Y203879D01*
X60610Y203143D01*
X60255Y202286D01*
X60133Y201366D01*
X60255Y200446D01*
X60610Y199589D01*
X61174Y198853D01*
X61910Y198288D01*
X62768Y197933D01*
X63687Y197812D01*
X64607Y197933D01*
X65465Y198288D01*
X66201Y198853D01*
X66672Y199468D01*
X67136Y199411D01*
X67460Y199255D01*
Y197516D01*
X67535Y197140D01*
X67748Y196821D01*
X70140Y194428D01*
X69839Y193701D01*
X29134D01*
Y221604D01*
X245261D01*
X247442Y221389D01*
D02*
G37*
G36*
X101504Y204132D02*
X101174Y203879D01*
X100610Y203143D01*
X100254Y202286D01*
X100134Y201366D01*
X100254Y200446D01*
X100610Y199589D01*
X101174Y198853D01*
X101910Y198288D01*
X102768Y197933D01*
X103688Y197812D01*
X104607Y197933D01*
X105464Y198288D01*
X106201Y198853D01*
X106765Y199589D01*
X107120Y200446D01*
X107241Y201366D01*
X107222Y201512D01*
X107968Y201880D01*
X109461Y200387D01*
X109911Y200087D01*
X110441Y199981D01*
X110447D01*
X110610Y199589D01*
X111174Y198853D01*
X111910Y198288D01*
X112768Y197933D01*
X113688Y197812D01*
X114607Y197933D01*
X115464Y198288D01*
X116201Y198853D01*
X116292Y198972D01*
X117079Y198705D01*
Y198291D01*
X117154Y197915D01*
X117368Y197596D01*
X117638Y197325D01*
X117337Y196598D01*
X82346D01*
X80782Y198162D01*
X81302Y198755D01*
X81911Y198288D01*
X82768Y197933D01*
X83688Y197812D01*
X84607Y197933D01*
X85465Y198288D01*
X86201Y198853D01*
X86765Y199589D01*
X87120Y200446D01*
X87242Y201366D01*
X87120Y202286D01*
X86765Y203143D01*
X86201Y203879D01*
X85871Y204132D01*
X86138Y204920D01*
X91237D01*
X91504Y204132D01*
X91174Y203879D01*
X90610Y203143D01*
X90254Y202286D01*
X90134Y201366D01*
X90254Y200446D01*
X90610Y199589D01*
X91174Y198853D01*
X91910Y198288D01*
X92768Y197933D01*
X93687Y197812D01*
X94607Y197933D01*
X95464Y198288D01*
X96201Y198853D01*
X96765Y199589D01*
X97120Y200446D01*
X97241Y201366D01*
X97120Y202286D01*
X96765Y203143D01*
X96201Y203879D01*
X95871Y204132D01*
X96138Y204920D01*
X101237D01*
X101504Y204132D01*
D02*
G37*
G36*
X197951Y176331D02*
X197625Y175543D01*
X168215D01*
X168028Y175823D01*
X167449Y176210D01*
X167256Y176249D01*
Y177051D01*
X167449Y177090D01*
X168028Y177477D01*
X168215Y177757D01*
X196525D01*
X197951Y176331D01*
D02*
G37*
G36*
X153344Y177477D02*
X153924Y177090D01*
X154116Y177051D01*
Y176249D01*
X153924Y176210D01*
X153344Y175823D01*
X153157Y175543D01*
X137834D01*
Y177757D01*
X153157D01*
X153344Y177477D01*
D02*
G37*
G36*
X165261Y179643D02*
X165115Y179424D01*
X164979Y178740D01*
X165115Y178057D01*
X165502Y177477D01*
X166082Y177090D01*
X166274Y177051D01*
Y176249D01*
X166082Y176210D01*
X165502Y175823D01*
X165115Y175244D01*
X164979Y174560D01*
X165115Y173877D01*
X165502Y173297D01*
X166082Y172910D01*
X166765Y172774D01*
X167449Y172910D01*
X168028Y173297D01*
X168215Y173577D01*
X198226D01*
X198753Y172993D01*
X198716Y172775D01*
X198457Y172267D01*
X197783Y172133D01*
X197062Y171651D01*
X196580Y170930D01*
X196510Y170579D01*
X198634D01*
Y170079D01*
X199134D01*
Y167954D01*
X199485Y168024D01*
X200206Y168506D01*
X200689Y169228D01*
X200823Y169901D01*
X201331Y170160D01*
X201626Y170212D01*
X235205Y136632D01*
X235206Y136622D01*
X234856Y135868D01*
X234552Y135893D01*
X204898Y165546D01*
X204449Y165846D01*
X203919Y165952D01*
X182813D01*
X182415Y166217D01*
X181732Y166353D01*
X181048Y166217D01*
X180469Y165830D01*
X180082Y165251D01*
X179946Y164567D01*
X180082Y163883D01*
X180347Y163486D01*
Y145969D01*
X178104Y143726D01*
X177804Y143277D01*
X177699Y142747D01*
Y118160D01*
X177804Y117630D01*
X178104Y117181D01*
X178965Y116320D01*
X179058Y115852D01*
X179324Y115455D01*
Y104117D01*
X176557Y101350D01*
X176088Y101257D01*
X175508Y100869D01*
X175295Y100550D01*
X174501Y100463D01*
X174384Y100496D01*
X174191Y100785D01*
X173469Y101267D01*
X173118Y101337D01*
Y99213D01*
Y97088D01*
X173469Y97158D01*
X174191Y97640D01*
X174611Y98269D01*
X175070Y98373D01*
X175480Y98385D01*
X175508Y98343D01*
X176088Y97956D01*
X176772Y97820D01*
X177455Y97956D01*
X178035Y98343D01*
X178422Y98923D01*
X178515Y99391D01*
X181688Y102564D01*
X181988Y103013D01*
X182094Y103543D01*
Y115150D01*
X183514D01*
X184044Y115256D01*
X184493Y115556D01*
X186444Y117507D01*
X186444Y117507D01*
X186744Y117956D01*
X186849Y118486D01*
Y118685D01*
X187283Y118900D01*
X187637Y118987D01*
X188283Y118556D01*
X188634Y118486D01*
Y120610D01*
Y122735D01*
X188283Y122665D01*
X187637Y122233D01*
X187283Y122320D01*
X186849Y122535D01*
Y124021D01*
X187815Y124987D01*
X191828D01*
X192225Y124721D01*
X192909Y124585D01*
X193592Y124721D01*
X194172Y125109D01*
X194559Y125688D01*
X194695Y126372D01*
X194559Y127055D01*
X194172Y127635D01*
X193592Y128022D01*
X192909Y128158D01*
X192225Y128022D01*
X191828Y127757D01*
X187241D01*
X186712Y127651D01*
X186262Y127351D01*
X184485Y125574D01*
X184185Y125125D01*
X184080Y124595D01*
Y119060D01*
X182940Y117920D01*
X181790D01*
X181392Y118186D01*
X180924Y118279D01*
X180469Y118734D01*
Y133054D01*
X181123Y133533D01*
Y135781D01*
Y138029D01*
X180469Y138507D01*
Y142173D01*
X182711Y144416D01*
X183011Y144865D01*
X183117Y145395D01*
Y163182D01*
X203345D01*
X232884Y133643D01*
X232978Y133175D01*
X233243Y132777D01*
Y104456D01*
X232570Y103782D01*
X230149D01*
X229751Y104048D01*
X229068Y104184D01*
X228384Y104048D01*
X227805Y103661D01*
X227418Y103081D01*
X227282Y102398D01*
X227418Y101714D01*
X227805Y101135D01*
X228384Y100747D01*
X229068Y100611D01*
X229751Y100747D01*
X230149Y101013D01*
X232238D01*
X233243Y100008D01*
Y97442D01*
X233206Y97407D01*
X232455Y97093D01*
X232116Y97320D01*
X231432Y97456D01*
X230749Y97320D01*
X230169Y96932D01*
X229782Y96353D01*
X229646Y95669D01*
X229712Y95339D01*
X225120Y90747D01*
X169489D01*
X169113Y90672D01*
X168794Y90459D01*
X156391Y78057D01*
X156178Y77738D01*
X156103Y77361D01*
Y38203D01*
X146443Y28543D01*
X137834D01*
Y173577D01*
X153157D01*
X153344Y173297D01*
X153924Y172910D01*
X154607Y172774D01*
X155291Y172910D01*
X155870Y173297D01*
X156258Y173877D01*
X156394Y174560D01*
X156258Y175244D01*
X155870Y175823D01*
X155291Y176210D01*
X155098Y176249D01*
Y177051D01*
X155291Y177090D01*
X155870Y177477D01*
X156258Y178057D01*
X156394Y178740D01*
X156258Y179424D01*
X156111Y179643D01*
X156532Y180430D01*
X164840D01*
X165261Y179643D01*
D02*
G37*
G36*
X229775Y79857D02*
X229709Y79527D01*
X229845Y78844D01*
X230233Y78264D01*
X230494Y78089D01*
X230725Y77229D01*
X230707Y77095D01*
X230489Y76801D01*
X208909D01*
X208379Y76696D01*
X207929Y76396D01*
X206107Y74573D01*
X205807Y74124D01*
X205702Y73594D01*
Y65952D01*
X195608D01*
X193865Y67695D01*
Y78447D01*
X194130Y78844D01*
X194266Y79528D01*
X194149Y80119D01*
X194202Y80315D01*
X194613Y80906D01*
X228726D01*
X229775Y79857D01*
D02*
G37*
G36*
X237161Y133576D02*
Y76643D01*
X227453Y66935D01*
X213196D01*
X212820Y66860D01*
X212501Y66647D01*
X211353Y65500D01*
X211024Y65566D01*
X210340Y65430D01*
X209760Y65043D01*
X209622Y64836D01*
X208786Y65002D01*
X208737Y65250D01*
X208471Y65648D01*
Y73021D01*
X209482Y74032D01*
X231645D01*
X232174Y74137D01*
X232624Y74437D01*
X235607Y77421D01*
X235907Y77870D01*
X236013Y78400D01*
X236013Y78400D01*
Y100582D01*
X235907Y101111D01*
X235607Y101561D01*
X235607Y101561D01*
X234936Y102232D01*
X235607Y102903D01*
X235607Y102903D01*
X235907Y103352D01*
X236013Y103882D01*
Y132777D01*
X236278Y133175D01*
X236373Y133653D01*
X237161Y133576D01*
D02*
G37*
G36*
X238615Y74202D02*
X238672Y73814D01*
X228634Y63776D01*
X217020D01*
X216763Y64181D01*
X217182Y64968D01*
X227860D01*
X228237Y65043D01*
X228556Y65256D01*
X237779Y74480D01*
X238615Y74202D01*
D02*
G37*
G36*
X75350Y23318D02*
X75737Y22738D01*
X75857Y22658D01*
X75618Y21871D01*
X54582D01*
X53928Y22433D01*
X53848Y22835D01*
X54329Y23622D01*
X75289D01*
X75350Y23318D01*
D02*
G37*
%LPC*%
G36*
X43687Y214920D02*
X42768Y214799D01*
X41910Y214444D01*
X41174Y213879D01*
X40610Y213143D01*
X40447Y212751D01*
X36928D01*
X36765Y213143D01*
X36201Y213879D01*
X35465Y214444D01*
X34607Y214799D01*
X33687Y214920D01*
X32768Y214799D01*
X31910Y214444D01*
X31174Y213879D01*
X30610Y213143D01*
X30255Y212286D01*
X30133Y211366D01*
X30255Y210446D01*
X30610Y209589D01*
X31174Y208853D01*
X31910Y208288D01*
X32768Y207933D01*
X33687Y207812D01*
X34607Y207933D01*
X35465Y208288D01*
X36201Y208853D01*
X36765Y209589D01*
X36928Y209981D01*
X40447D01*
X40610Y209589D01*
X41174Y208853D01*
X41910Y208288D01*
X42768Y207933D01*
X43687Y207812D01*
X44607Y207933D01*
X45465Y208288D01*
X46201Y208853D01*
X46765Y209589D01*
X47120Y210446D01*
X47242Y211366D01*
X47120Y212286D01*
X46765Y213143D01*
X46201Y213879D01*
X45465Y214444D01*
X44607Y214799D01*
X43687Y214920D01*
D02*
G37*
G36*
X194187Y215287D02*
Y211866D01*
X197608D01*
X197538Y212398D01*
X197140Y213360D01*
X196507Y214185D01*
X195681Y214819D01*
X194719Y215217D01*
X194187Y215287D01*
D02*
G37*
G36*
X193187D02*
X192656Y215217D01*
X191694Y214819D01*
X190868Y214185D01*
X190235Y213360D01*
X189837Y212398D01*
X189767Y211866D01*
X193187D01*
Y215287D01*
D02*
G37*
G36*
X174188D02*
Y211866D01*
X177609D01*
X177539Y212398D01*
X177140Y213360D01*
X176507Y214185D01*
X175681Y214819D01*
X174719Y215217D01*
X174188Y215287D01*
D02*
G37*
G36*
X173187D02*
X172656Y215217D01*
X171694Y214819D01*
X170868Y214185D01*
X170235Y213360D01*
X169836Y212398D01*
X169766Y211866D01*
X173187D01*
Y215287D01*
D02*
G37*
G36*
X124188D02*
Y211866D01*
X127609D01*
X127539Y212398D01*
X127140Y213360D01*
X126507Y214185D01*
X125681Y214819D01*
X124719Y215217D01*
X124188Y215287D01*
D02*
G37*
G36*
X123187D02*
X122656Y215217D01*
X121694Y214819D01*
X120868Y214185D01*
X120235Y213360D01*
X119836Y212398D01*
X119766Y211866D01*
X123187D01*
Y215287D01*
D02*
G37*
G36*
X94187D02*
Y211866D01*
X97609D01*
X97539Y212398D01*
X97140Y213360D01*
X96507Y214185D01*
X95681Y214819D01*
X94719Y215217D01*
X94187Y215287D01*
D02*
G37*
G36*
X93187D02*
X92656Y215217D01*
X91694Y214819D01*
X90868Y214185D01*
X90235Y213360D01*
X89837Y212398D01*
X89766Y211866D01*
X93187D01*
Y215287D01*
D02*
G37*
G36*
X54188D02*
Y211866D01*
X57608D01*
X57538Y212398D01*
X57140Y213360D01*
X56507Y214185D01*
X55681Y214819D01*
X54719Y215217D01*
X54188Y215287D01*
D02*
G37*
G36*
X53188D02*
X52656Y215217D01*
X51694Y214819D01*
X50868Y214185D01*
X50235Y213360D01*
X49837Y212398D01*
X49766Y211866D01*
X53188D01*
Y215287D01*
D02*
G37*
G36*
X223688Y214920D02*
X222768Y214799D01*
X221911Y214444D01*
X221174Y213879D01*
X220610Y213143D01*
X220255Y212286D01*
X220133Y211366D01*
X220255Y210446D01*
X220610Y209589D01*
X221174Y208853D01*
X221911Y208288D01*
X222768Y207933D01*
X223688Y207812D01*
X224607Y207933D01*
X225465Y208288D01*
X226201Y208853D01*
X226765Y209589D01*
X227120Y210446D01*
X227241Y211366D01*
X227120Y212286D01*
X226765Y213143D01*
X226201Y213879D01*
X225465Y214444D01*
X224607Y214799D01*
X223688Y214920D01*
D02*
G37*
G36*
X213687D02*
X212768Y214799D01*
X211911Y214444D01*
X211174Y213879D01*
X210610Y213143D01*
X210255Y212286D01*
X210133Y211366D01*
X210255Y210446D01*
X210610Y209589D01*
X211174Y208853D01*
X211911Y208288D01*
X212768Y207933D01*
X213687Y207812D01*
X214607Y207933D01*
X215464Y208288D01*
X216201Y208853D01*
X216765Y209589D01*
X217120Y210446D01*
X217242Y211366D01*
X217120Y212286D01*
X216765Y213143D01*
X216201Y213879D01*
X215464Y214444D01*
X214607Y214799D01*
X213687Y214920D01*
D02*
G37*
G36*
X203688D02*
X202768Y214799D01*
X201910Y214444D01*
X201174Y213879D01*
X200610Y213143D01*
X200255Y212286D01*
X200133Y211366D01*
X200255Y210446D01*
X200610Y209589D01*
X201174Y208853D01*
X201910Y208288D01*
X202768Y207933D01*
X203688Y207812D01*
X204607Y207933D01*
X205465Y208288D01*
X206201Y208853D01*
X206765Y209589D01*
X207120Y210446D01*
X207242Y211366D01*
X207120Y212286D01*
X206765Y213143D01*
X206201Y213879D01*
X205465Y214444D01*
X204607Y214799D01*
X203688Y214920D01*
D02*
G37*
G36*
X183687D02*
X182768Y214799D01*
X181911Y214444D01*
X181174Y213879D01*
X180610Y213143D01*
X180254Y212286D01*
X180133Y211366D01*
X180254Y210446D01*
X180610Y209589D01*
X181174Y208853D01*
X181911Y208288D01*
X182768Y207933D01*
X183687Y207812D01*
X184607Y207933D01*
X185465Y208288D01*
X186201Y208853D01*
X186765Y209589D01*
X187120Y210446D01*
X187241Y211366D01*
X187120Y212286D01*
X186765Y213143D01*
X186201Y213879D01*
X185465Y214444D01*
X184607Y214799D01*
X183687Y214920D01*
D02*
G37*
G36*
X163688D02*
X162768Y214799D01*
X161910Y214444D01*
X161174Y213879D01*
X160610Y213143D01*
X160255Y212286D01*
X160133Y211366D01*
X160255Y210446D01*
X160610Y209589D01*
X161174Y208853D01*
X161910Y208288D01*
X162768Y207933D01*
X163688Y207812D01*
X164607Y207933D01*
X165464Y208288D01*
X166201Y208853D01*
X166765Y209589D01*
X167120Y210446D01*
X167242Y211366D01*
X167120Y212286D01*
X166765Y213143D01*
X166201Y213879D01*
X165464Y214444D01*
X164607Y214799D01*
X163688Y214920D01*
D02*
G37*
G36*
X143687D02*
X142768Y214799D01*
X141911Y214444D01*
X141174Y213879D01*
X140610Y213143D01*
X140254Y212286D01*
X140133Y211366D01*
X140254Y210446D01*
X140610Y209589D01*
X141174Y208853D01*
X141911Y208288D01*
X142768Y207933D01*
X143687Y207812D01*
X144607Y207933D01*
X145465Y208288D01*
X146201Y208853D01*
X146765Y209589D01*
X147120Y210446D01*
X147241Y211366D01*
X147120Y212286D01*
X146765Y213143D01*
X146201Y213879D01*
X145465Y214444D01*
X144607Y214799D01*
X143687Y214920D01*
D02*
G37*
G36*
X197608Y210866D02*
X194187D01*
Y207445D01*
X194719Y207515D01*
X195681Y207913D01*
X196507Y208547D01*
X197140Y209373D01*
X197538Y210334D01*
X197608Y210866D01*
D02*
G37*
G36*
X193187D02*
X189767D01*
X189837Y210334D01*
X190235Y209373D01*
X190868Y208547D01*
X191694Y207913D01*
X192656Y207515D01*
X193187Y207445D01*
Y210866D01*
D02*
G37*
G36*
X177609D02*
X174188D01*
Y207445D01*
X174719Y207515D01*
X175681Y207913D01*
X176507Y208547D01*
X177140Y209373D01*
X177539Y210334D01*
X177609Y210866D01*
D02*
G37*
G36*
X173187D02*
X169766D01*
X169836Y210334D01*
X170235Y209373D01*
X170868Y208547D01*
X171694Y207913D01*
X172656Y207515D01*
X173187Y207445D01*
Y210866D01*
D02*
G37*
G36*
X127609D02*
X124188D01*
Y207445D01*
X124719Y207515D01*
X125681Y207913D01*
X126507Y208547D01*
X127140Y209373D01*
X127539Y210334D01*
X127609Y210866D01*
D02*
G37*
G36*
X123187D02*
X119766D01*
X119836Y210334D01*
X120235Y209373D01*
X120868Y208547D01*
X121694Y207913D01*
X122656Y207515D01*
X123187Y207445D01*
Y210866D01*
D02*
G37*
G36*
X57608D02*
X54188D01*
Y207445D01*
X54719Y207515D01*
X55681Y207913D01*
X56507Y208547D01*
X57140Y209373D01*
X57538Y210334D01*
X57608Y210866D01*
D02*
G37*
G36*
X53188D02*
X49766D01*
X49837Y210334D01*
X50235Y209373D01*
X50868Y208547D01*
X51694Y207913D01*
X52656Y207515D01*
X53188Y207445D01*
Y210866D01*
D02*
G37*
G36*
X224187Y205287D02*
Y201866D01*
X227608D01*
X227538Y202398D01*
X227140Y203360D01*
X226507Y204185D01*
X225681Y204819D01*
X224719Y205217D01*
X224187Y205287D01*
D02*
G37*
G36*
X223187D02*
X222656Y205217D01*
X221694Y204819D01*
X220868Y204185D01*
X220235Y203360D01*
X219836Y202398D01*
X219766Y201866D01*
X223187D01*
Y205287D01*
D02*
G37*
G36*
X154188D02*
Y201866D01*
X157608D01*
X157538Y202398D01*
X157140Y203360D01*
X156507Y204185D01*
X155681Y204819D01*
X154719Y205217D01*
X154188Y205287D01*
D02*
G37*
G36*
X37211Y204890D02*
X30164D01*
Y197843D01*
X37211D01*
Y204890D01*
D02*
G37*
G36*
X213687Y204920D02*
X212768Y204799D01*
X211911Y204444D01*
X211174Y203879D01*
X210610Y203143D01*
X210255Y202286D01*
X210133Y201366D01*
X210255Y200446D01*
X210610Y199589D01*
X211174Y198853D01*
X211911Y198288D01*
X212768Y197933D01*
X213687Y197812D01*
X214607Y197933D01*
X215464Y198288D01*
X216201Y198853D01*
X216765Y199589D01*
X217120Y200446D01*
X217242Y201366D01*
X217120Y202286D01*
X216765Y203143D01*
X216201Y203879D01*
X215464Y204444D01*
X214607Y204799D01*
X213687Y204920D01*
D02*
G37*
G36*
X203688D02*
X202768Y204799D01*
X201910Y204444D01*
X201174Y203879D01*
X200610Y203143D01*
X200255Y202286D01*
X200133Y201366D01*
X200255Y200446D01*
X200610Y199589D01*
X201174Y198853D01*
X201910Y198288D01*
X202768Y197933D01*
X203688Y197812D01*
X204607Y197933D01*
X205465Y198288D01*
X206201Y198853D01*
X206765Y199589D01*
X207120Y200446D01*
X207242Y201366D01*
X207120Y202286D01*
X206765Y203143D01*
X206201Y203879D01*
X205465Y204444D01*
X204607Y204799D01*
X203688Y204920D01*
D02*
G37*
G36*
X193687D02*
X192768Y204799D01*
X191911Y204444D01*
X191174Y203879D01*
X190610Y203143D01*
X190254Y202286D01*
X190133Y201366D01*
X190254Y200446D01*
X190610Y199589D01*
X191174Y198853D01*
X191911Y198288D01*
X192768Y197933D01*
X193687Y197812D01*
X194607Y197933D01*
X195465Y198288D01*
X196201Y198853D01*
X196765Y199589D01*
X197120Y200446D01*
X197241Y201366D01*
X197120Y202286D01*
X196765Y203143D01*
X196201Y203879D01*
X195465Y204444D01*
X194607Y204799D01*
X193687Y204920D01*
D02*
G37*
G36*
X183687D02*
X182768Y204799D01*
X181911Y204444D01*
X181174Y203879D01*
X180610Y203143D01*
X180254Y202286D01*
X180133Y201366D01*
X180254Y200446D01*
X180610Y199589D01*
X181174Y198853D01*
X181911Y198288D01*
X182768Y197933D01*
X183687Y197812D01*
X184607Y197933D01*
X185465Y198288D01*
X186201Y198853D01*
X186765Y199589D01*
X187120Y200446D01*
X187241Y201366D01*
X187120Y202286D01*
X186765Y203143D01*
X186201Y203879D01*
X185465Y204444D01*
X184607Y204799D01*
X183687Y204920D01*
D02*
G37*
G36*
X163688D02*
X162768Y204799D01*
X161910Y204444D01*
X161174Y203879D01*
X160610Y203143D01*
X160255Y202286D01*
X160133Y201366D01*
X160255Y200446D01*
X160610Y199589D01*
X161174Y198853D01*
X161910Y198288D01*
X162768Y197933D01*
X163688Y197812D01*
X164607Y197933D01*
X165464Y198288D01*
X166201Y198853D01*
X166765Y199589D01*
X167120Y200446D01*
X167242Y201366D01*
X167120Y202286D01*
X166765Y203143D01*
X166201Y203879D01*
X165464Y204444D01*
X164607Y204799D01*
X163688Y204920D01*
D02*
G37*
G36*
X53688D02*
X52768Y204799D01*
X51911Y204444D01*
X51174Y203879D01*
X50610Y203143D01*
X50255Y202286D01*
X50133Y201366D01*
X50255Y200446D01*
X50610Y199589D01*
X51174Y198853D01*
X51911Y198288D01*
X52768Y197933D01*
X53688Y197812D01*
X54607Y197933D01*
X55465Y198288D01*
X56201Y198853D01*
X56765Y199589D01*
X57120Y200446D01*
X57241Y201366D01*
X57120Y202286D01*
X56765Y203143D01*
X56201Y203879D01*
X55465Y204444D01*
X54607Y204799D01*
X53688Y204920D01*
D02*
G37*
G36*
X43687D02*
X42768Y204799D01*
X41910Y204444D01*
X41174Y203879D01*
X40610Y203143D01*
X40255Y202286D01*
X40133Y201366D01*
X40255Y200446D01*
X40610Y199589D01*
X41174Y198853D01*
X41910Y198288D01*
X42768Y197933D01*
X43687Y197812D01*
X44607Y197933D01*
X45465Y198288D01*
X46201Y198853D01*
X46765Y199589D01*
X47120Y200446D01*
X47242Y201366D01*
X47120Y202286D01*
X46765Y203143D01*
X46201Y203879D01*
X45465Y204444D01*
X44607Y204799D01*
X43687Y204920D01*
D02*
G37*
G36*
X227608Y200866D02*
X224187D01*
Y197445D01*
X224719Y197515D01*
X225681Y197913D01*
X226507Y198547D01*
X227140Y199373D01*
X227538Y200334D01*
X227608Y200866D01*
D02*
G37*
G36*
X223187D02*
X219766D01*
X219836Y200334D01*
X220235Y199373D01*
X220868Y198547D01*
X221694Y197913D01*
X222656Y197515D01*
X223187Y197445D01*
Y200866D01*
D02*
G37*
G36*
X157608D02*
X154188D01*
Y197445D01*
X154719Y197515D01*
X155681Y197913D01*
X156507Y198547D01*
X157140Y199373D01*
X157538Y200334D01*
X157608Y200866D01*
D02*
G37*
G36*
X243335Y218126D02*
X241546Y217985D01*
X239802Y217566D01*
X238144Y216880D01*
X236615Y215942D01*
X235250Y214777D01*
X234085Y213413D01*
X233148Y211883D01*
X232461Y210226D01*
X232043Y208481D01*
X231902Y206693D01*
X232043Y204904D01*
X232461Y203160D01*
X233148Y201502D01*
X234085Y199973D01*
X235250Y198609D01*
X236615Y197443D01*
X238144Y196506D01*
X239802Y195820D01*
X241546Y195401D01*
X243335Y195260D01*
X245123Y195401D01*
X246868Y195820D01*
X248525Y196506D01*
X250055Y197443D01*
X251419Y198609D01*
X252584Y199973D01*
X253521Y201502D01*
X254208Y203160D01*
X254627Y204904D01*
X254767Y206693D01*
X254627Y208481D01*
X254208Y210226D01*
X253521Y211883D01*
X252584Y213413D01*
X251419Y214777D01*
X250055Y215942D01*
X248525Y216880D01*
X246868Y217566D01*
X245123Y217985D01*
X243335Y218126D01*
D02*
G37*
G36*
X188350Y78380D02*
X186726D01*
Y76756D01*
X187077Y76826D01*
X187798Y77308D01*
X188280Y78029D01*
X188350Y78380D01*
D02*
G37*
G36*
X185726D02*
X184101D01*
X184171Y78029D01*
X184653Y77308D01*
X185375Y76826D01*
X185726Y76756D01*
Y78380D01*
D02*
G37*
G36*
X186311Y62754D02*
Y61130D01*
X187935D01*
X187866Y61481D01*
X187384Y62202D01*
X186662Y62685D01*
X186311Y62754D01*
D02*
G37*
G36*
X185311D02*
X184960Y62685D01*
X184239Y62202D01*
X183757Y61481D01*
X183687Y61130D01*
X185311D01*
Y62754D01*
D02*
G37*
G36*
X187935Y60130D02*
X186311D01*
Y58506D01*
X186662Y58575D01*
X187384Y59057D01*
X187866Y59779D01*
X187935Y60130D01*
D02*
G37*
G36*
X185311D02*
X183687D01*
X183757Y59779D01*
X184239Y59057D01*
X184960Y58575D01*
X185311Y58506D01*
Y60130D01*
D02*
G37*
G36*
X232784Y27715D02*
Y26091D01*
X234408D01*
X234338Y26442D01*
X233856Y27163D01*
X233135Y27645D01*
X232784Y27715D01*
D02*
G37*
G36*
X231784D02*
X231432Y27645D01*
X230711Y27163D01*
X230229Y26442D01*
X230159Y26091D01*
X231784D01*
Y27715D01*
D02*
G37*
G36*
X234408Y25091D02*
X232784D01*
Y23466D01*
X233135Y23536D01*
X233856Y24018D01*
X234338Y24739D01*
X234408Y25091D01*
D02*
G37*
G36*
X231784D02*
X230159D01*
X230229Y24739D01*
X230711Y24018D01*
X231432Y23536D01*
X231784Y23466D01*
Y25091D01*
D02*
G37*
G36*
X161130Y24863D02*
Y23238D01*
X162754D01*
X162685Y23589D01*
X162202Y24311D01*
X161481Y24793D01*
X161130Y24863D01*
D02*
G37*
G36*
X160130D02*
X159779Y24793D01*
X159057Y24311D01*
X158575Y23589D01*
X158505Y23238D01*
X160130D01*
Y24863D01*
D02*
G37*
G36*
X199331Y24187D02*
Y22563D01*
X200955D01*
X200885Y22914D01*
X200403Y23635D01*
X199682Y24117D01*
X199331Y24187D01*
D02*
G37*
G36*
X198331D02*
X197980Y24117D01*
X197258Y23635D01*
X196776Y22914D01*
X196706Y22563D01*
X198331D01*
Y24187D01*
D02*
G37*
G36*
X162754Y22238D02*
X161130D01*
Y20614D01*
X161481Y20684D01*
X162202Y21166D01*
X162205Y21169D01*
X162685Y21887D01*
X162754Y22238D01*
D02*
G37*
G36*
X160130D02*
X158505D01*
X158575Y21887D01*
X159057Y21166D01*
X159779Y20684D01*
X160130Y20614D01*
Y22238D01*
D02*
G37*
G36*
X200955Y21563D02*
X199331D01*
Y19938D01*
X199682Y20008D01*
X200403Y20490D01*
X200885Y21212D01*
X200955Y21563D01*
D02*
G37*
G36*
X198331D02*
X196706D01*
X196776Y21212D01*
X197258Y20490D01*
X197980Y20008D01*
X198331Y19938D01*
Y21563D01*
D02*
G37*
G36*
X39575Y19629D02*
Y18004D01*
X41199D01*
X41129Y18355D01*
X40647Y19077D01*
X39926Y19559D01*
X39575Y19629D01*
D02*
G37*
G36*
X38575D02*
X38224Y19559D01*
X37502Y19077D01*
X37020Y18355D01*
X36950Y18004D01*
X38575D01*
Y19629D01*
D02*
G37*
G36*
X41199Y17004D02*
X39575D01*
Y15380D01*
X39926Y15450D01*
X40647Y15932D01*
X41129Y16653D01*
X41199Y17004D01*
D02*
G37*
G36*
X38575D02*
X36950D01*
X37020Y16653D01*
X37502Y15932D01*
X38224Y15450D01*
X38575Y15380D01*
Y17004D01*
D02*
G37*
G36*
X100333Y16504D02*
X98709D01*
Y14880D01*
X99060Y14950D01*
X99781Y15432D01*
X100263Y16153D01*
X100333Y16504D01*
D02*
G37*
G36*
X97709D02*
X96084D01*
X96154Y16153D01*
X96636Y15432D01*
X97358Y14950D01*
X97709Y14880D01*
Y16504D01*
D02*
G37*
G36*
X198134Y169579D02*
X196510D01*
X196580Y169228D01*
X197062Y168506D01*
X197783Y168024D01*
X198134Y167954D01*
Y169579D01*
D02*
G37*
G36*
X206299Y156511D02*
X205616Y156375D01*
X205036Y155988D01*
X204649Y155408D01*
X204513Y154724D01*
X204649Y154041D01*
X204914Y153644D01*
Y141894D01*
X204088Y141067D01*
X203619Y140974D01*
X203040Y140587D01*
X202652Y140007D01*
X202516Y139324D01*
X202652Y138640D01*
X203040Y138061D01*
X203619Y137673D01*
X204303Y137538D01*
X204986Y137673D01*
X205566Y138061D01*
X205953Y138640D01*
X206046Y139109D01*
X207278Y140341D01*
X207579Y140790D01*
X207684Y141320D01*
Y153644D01*
X207949Y154041D01*
X208085Y154724D01*
X207949Y155408D01*
X207562Y155988D01*
X206983Y156375D01*
X206299Y156511D01*
D02*
G37*
G36*
X215656Y137951D02*
Y136327D01*
X217281D01*
X217211Y136678D01*
X216729Y137399D01*
X216007Y137881D01*
X215656Y137951D01*
D02*
G37*
G36*
X214656D02*
X214305Y137881D01*
X213584Y137399D01*
X213102Y136678D01*
X213032Y136327D01*
X214656D01*
Y137951D01*
D02*
G37*
G36*
X182123Y137905D02*
Y136281D01*
X183747D01*
X183678Y136632D01*
X183196Y137353D01*
X182474Y137835D01*
X182123Y137905D01*
D02*
G37*
G36*
X217281Y135327D02*
X215656D01*
Y133702D01*
X216007Y133772D01*
X216729Y134254D01*
X217211Y134976D01*
X217281Y135327D01*
D02*
G37*
G36*
X214656D02*
X213032D01*
X213102Y134976D01*
X213584Y134254D01*
X214305Y133772D01*
X214656Y133702D01*
Y135327D01*
D02*
G37*
G36*
X183747Y135281D02*
X182123D01*
Y133656D01*
X182474Y133726D01*
X183196Y134208D01*
X183678Y134930D01*
X183747Y135281D01*
D02*
G37*
G36*
X169608Y128896D02*
Y127272D01*
X171232D01*
X171162Y127623D01*
X170680Y128344D01*
X169959Y128826D01*
X169608Y128896D01*
D02*
G37*
G36*
X168608D02*
X168257Y128826D01*
X167535Y128344D01*
X167053Y127623D01*
X166983Y127272D01*
X168608D01*
Y128896D01*
D02*
G37*
G36*
X171232Y126272D02*
X169608D01*
Y124647D01*
X169959Y124717D01*
X170680Y125199D01*
X171162Y125921D01*
X171232Y126272D01*
D02*
G37*
G36*
X168608D02*
X166983D01*
X167053Y125921D01*
X167535Y125199D01*
X168257Y124717D01*
X168608Y124647D01*
Y126272D01*
D02*
G37*
G36*
X189634Y122735D02*
Y121110D01*
X191258D01*
X191188Y121461D01*
X190706Y122183D01*
X189985Y122665D01*
X189634Y122735D01*
D02*
G37*
G36*
X191258Y120110D02*
X189634D01*
Y118486D01*
X189985Y118556D01*
X190706Y119038D01*
X191188Y119759D01*
X191258Y120110D01*
D02*
G37*
G36*
X211917Y117433D02*
Y115402D01*
X213948D01*
X213926Y115574D01*
X213666Y116200D01*
X213254Y116738D01*
X212716Y117151D01*
X212089Y117410D01*
X211917Y117433D01*
D02*
G37*
G36*
X199106Y117433D02*
X198934Y117410D01*
X198308Y117151D01*
X197770Y116738D01*
X197357Y116200D01*
X197098Y115574D01*
X197075Y115402D01*
X199106D01*
Y117433D01*
D02*
G37*
G36*
X205012Y117433D02*
X204840Y117410D01*
X204213Y117151D01*
X203675Y116738D01*
X203263Y116200D01*
X203003Y115574D01*
X202976Y115367D01*
X202956Y115216D01*
X202162D01*
X202142Y115367D01*
X202115Y115574D01*
X201855Y116200D01*
X201443Y116738D01*
X200905Y117151D01*
X200278Y117410D01*
X200106Y117433D01*
Y114902D01*
X199606D01*
Y114402D01*
X197075D01*
X197098Y114229D01*
X197357Y113603D01*
X197770Y113065D01*
X198308Y112653D01*
X198934Y112393D01*
X199141Y112366D01*
X199292Y112346D01*
Y111552D01*
X199141Y111532D01*
X198934Y111505D01*
X198308Y111245D01*
X197770Y110832D01*
X197357Y110295D01*
X197098Y109668D01*
X197075Y109496D01*
X199606D01*
Y108496D01*
X197075D01*
X197098Y108324D01*
X197357Y107698D01*
X197770Y107160D01*
X198308Y106747D01*
X198934Y106488D01*
X199141Y106460D01*
X199292Y106440D01*
Y105646D01*
X199141Y105626D01*
X198934Y105599D01*
X198308Y105340D01*
X197770Y104927D01*
X197357Y104389D01*
X197098Y103763D01*
X197075Y103591D01*
X199606D01*
Y103091D01*
X200106D01*
Y100559D01*
X200278Y100582D01*
X200905Y100841D01*
X201443Y101254D01*
X201855Y101792D01*
X202115Y102418D01*
X202142Y102626D01*
X202162Y102776D01*
X202956D01*
X202976Y102626D01*
X203003Y102418D01*
X203263Y101792D01*
X203675Y101254D01*
X204213Y100841D01*
X204840Y100582D01*
X205012Y100559D01*
Y103091D01*
X206012D01*
Y100559D01*
X206184Y100582D01*
X206810Y100841D01*
X207348Y101254D01*
X207761Y101792D01*
X208020Y102418D01*
X208048Y102626D01*
X208067Y102776D01*
X208862D01*
X208881Y102626D01*
X208909Y102418D01*
X209168Y101792D01*
X209581Y101254D01*
X210119Y100841D01*
X210745Y100582D01*
X210917Y100559D01*
Y103091D01*
X211417D01*
Y103591D01*
X213948D01*
X213926Y103763D01*
X213666Y104389D01*
X213254Y104927D01*
X212716Y105340D01*
X212089Y105599D01*
X211882Y105626D01*
X211732Y105646D01*
Y106440D01*
X211882Y106460D01*
X212089Y106488D01*
X212716Y106747D01*
X213254Y107160D01*
X213666Y107698D01*
X213926Y108324D01*
X213948Y108496D01*
X211417D01*
Y109496D01*
X213948D01*
X213926Y109668D01*
X213666Y110295D01*
X213254Y110832D01*
X212716Y111245D01*
X212089Y111505D01*
X211882Y111532D01*
X211732Y111552D01*
Y112346D01*
X211882Y112366D01*
X212089Y112393D01*
X212716Y112653D01*
X213254Y113065D01*
X213666Y113603D01*
X213926Y114229D01*
X213948Y114402D01*
X211417D01*
Y114902D01*
X210917D01*
Y117433D01*
X210745Y117410D01*
X210119Y117151D01*
X209581Y116738D01*
X209168Y116200D01*
X208909Y115574D01*
X208881Y115367D01*
X208862Y115216D01*
X208067D01*
X208048Y115367D01*
X208020Y115574D01*
X207761Y116200D01*
X207348Y116738D01*
X206810Y117151D01*
X206184Y117410D01*
X206012Y117433D01*
Y114902D01*
X205012D01*
Y117433D01*
D02*
G37*
G36*
X225803Y114073D02*
Y112449D01*
X227427D01*
X227357Y112800D01*
X226875Y113521D01*
X226154Y114003D01*
X225803Y114073D01*
D02*
G37*
G36*
X224803D02*
X224452Y114003D01*
X223730Y113521D01*
X223248Y112800D01*
X223179Y112449D01*
X224803D01*
Y114073D01*
D02*
G37*
G36*
X149949Y112605D02*
Y110981D01*
X151573D01*
X151503Y111332D01*
X151021Y112053D01*
X150300Y112535D01*
X149949Y112605D01*
D02*
G37*
G36*
X148949D02*
X148598Y112535D01*
X147876Y112053D01*
X147394Y111332D01*
X147324Y110981D01*
X148949D01*
Y112605D01*
D02*
G37*
G36*
X227427Y111449D02*
X225803D01*
Y109825D01*
X226154Y109894D01*
X226875Y110376D01*
X227357Y111098D01*
X227427Y111449D01*
D02*
G37*
G36*
X224803D02*
X223179D01*
X223248Y111098D01*
X223730Y110376D01*
X224452Y109894D01*
X224803Y109825D01*
Y111449D01*
D02*
G37*
G36*
X188689Y110392D02*
Y108768D01*
X190313D01*
X190243Y109119D01*
X189761Y109840D01*
X189040Y110322D01*
X188689Y110392D01*
D02*
G37*
G36*
X187689D02*
X187338Y110322D01*
X186617Y109840D01*
X186134Y109119D01*
X186065Y108768D01*
X187689D01*
Y110392D01*
D02*
G37*
G36*
X151573Y109981D02*
X149949D01*
Y108356D01*
X150300Y108426D01*
X151021Y108908D01*
X151503Y109630D01*
X151573Y109981D01*
D02*
G37*
G36*
X148949D02*
X147324D01*
X147394Y109630D01*
X147876Y108908D01*
X148598Y108426D01*
X148949Y108356D01*
Y109981D01*
D02*
G37*
G36*
X190313Y107768D02*
X188689D01*
Y106143D01*
X189040Y106213D01*
X189761Y106695D01*
X190243Y107417D01*
X190313Y107768D01*
D02*
G37*
G36*
X187689D02*
X186065D01*
X186134Y107417D01*
X186617Y106695D01*
X187338Y106213D01*
X187689Y106143D01*
Y107768D01*
D02*
G37*
G36*
X199106Y102591D02*
X197075D01*
X197098Y102418D01*
X197357Y101792D01*
X197770Y101254D01*
X198308Y100841D01*
X198934Y100582D01*
X199106Y100559D01*
Y102591D01*
D02*
G37*
G36*
X213948D02*
X211917D01*
Y100559D01*
X212089Y100582D01*
X212716Y100841D01*
X213254Y101254D01*
X213666Y101792D01*
X213926Y102418D01*
X213948Y102591D01*
D02*
G37*
G36*
X172118Y101337D02*
X171767Y101267D01*
X171046Y100785D01*
X170564Y100064D01*
X170494Y99713D01*
X172118D01*
Y101337D01*
D02*
G37*
G36*
Y98713D02*
X170494D01*
X170564Y98362D01*
X171046Y97640D01*
X171767Y97158D01*
X172118Y97088D01*
Y98713D01*
D02*
G37*
%LPD*%
D16*
X250219Y58486D02*
Y139205D01*
X238316Y46584D02*
X250219Y58486D01*
X238316Y43415D02*
Y46584D01*
X241649Y66510D02*
Y136441D01*
X232570Y57431D02*
X241649Y66510D01*
X188771Y57431D02*
X232570D01*
X201078Y190654D02*
X251864Y139869D01*
Y56588D02*
Y139869D01*
X244094Y48819D02*
X251864Y56588D01*
X199688Y187512D02*
X248525Y138675D01*
Y60387D02*
Y138675D01*
X235415Y47278D02*
X248525Y60387D01*
X198913Y185950D02*
X246850Y138012D01*
Y62289D02*
Y138012D01*
X236530Y51968D02*
X246850Y62289D01*
X198269Y184365D02*
X245123Y137512D01*
Y63951D02*
Y137512D01*
X233929Y52756D02*
X245123Y63951D01*
X197564Y182882D02*
X243411Y137035D01*
Y65374D02*
Y137035D01*
X233155Y55118D02*
X243411Y65374D01*
X200305Y189119D02*
X250219Y139205D01*
X196932Y178740D02*
X239938Y135734D01*
Y73690D02*
Y135734D01*
X229041Y62793D02*
X239938Y73690D01*
X198668Y174560D02*
X238144Y135084D01*
Y76236D02*
Y135084D01*
X227860Y65952D02*
X238144Y76236D01*
X153676Y190654D02*
X201078D01*
X137259Y185950D02*
X198913D01*
X138079Y187512D02*
X199688D01*
X148150Y189119D02*
X200305D01*
X196676Y181413D02*
X241649Y136441D01*
X134940Y181413D02*
X196676D01*
X166765Y178740D02*
X196932D01*
X166765Y174560D02*
X198668D01*
X133687Y191903D02*
X138079Y187512D01*
X133687Y191903D02*
Y201366D01*
X128626Y194582D02*
X137259Y185950D01*
X128626Y194582D02*
Y206305D01*
X136532Y184365D02*
X198269D01*
X123688Y197210D02*
X136532Y184365D01*
X123688Y197210D02*
Y201366D01*
X118063Y198291D02*
X134940Y181413D01*
X118063Y198291D02*
Y203411D01*
X135704Y182882D02*
X197564D01*
X119350Y199235D02*
X135704Y182882D01*
X119350Y199235D02*
Y205703D01*
X146850Y27559D02*
X157087Y37795D01*
X62992Y27559D02*
X146850D01*
X62205Y26772D02*
X62992Y27559D01*
X164961Y33415D02*
Y73126D01*
X149734Y18189D02*
X164961Y33415D01*
X106709Y18189D02*
X149734D01*
X162992Y34475D02*
Y74121D01*
X149404Y20888D02*
X162992Y34475D01*
X53687Y20888D02*
X149404D01*
X161024Y35635D02*
Y75082D01*
X148523Y23134D02*
X161024Y35635D01*
X89126Y23134D02*
X148523D01*
X157087Y37795D02*
Y77361D01*
X164961Y73126D02*
X173724Y81890D01*
X162992Y74121D02*
X172730Y83858D01*
X161024Y75082D02*
X171768Y85827D01*
X157087Y77361D02*
X169489Y89764D01*
X173724Y81890D02*
X229133D01*
X172730Y83858D02*
X231496D01*
X229133Y81890D02*
X231496Y79527D01*
X225527Y89764D02*
X231432Y95669D01*
X169489Y89764D02*
X225527D01*
X227495Y87795D02*
X231432Y91732D01*
X170624Y87795D02*
X227495D01*
X159055Y76226D02*
X170624Y87795D01*
X229591Y85827D02*
X231496Y87731D01*
X171768Y85827D02*
X229591D01*
X214458Y179528D02*
X234628D01*
X214354Y179424D02*
X214458Y179528D01*
X201228Y192550D02*
X214354Y179424D01*
X229134Y52756D02*
X233929D01*
X173688Y194327D02*
X175464Y192550D01*
X173688Y194327D02*
Y201366D01*
X175464Y192550D02*
X201228D01*
X213196Y65952D02*
X227860D01*
X211024Y63779D02*
X213196Y65952D01*
X215338Y62793D02*
X229041D01*
X214961Y63170D02*
X215338Y62793D01*
X137216Y174560D02*
X154607D01*
X118447Y195614D02*
X135321Y178740D01*
X154607D01*
X159055Y36618D02*
Y76226D01*
X147901Y25465D02*
X159055Y36618D01*
X78463Y25465D02*
X147901D01*
X118001Y193776D02*
X137216Y174560D01*
X72184Y193776D02*
X118001D01*
X81939Y195614D02*
X118447D01*
X52142Y22433D02*
X53687Y20888D01*
X77000Y24001D02*
X78463Y25465D01*
X187610Y51959D02*
X190770Y55118D01*
X187610Y26772D02*
Y51959D01*
X184904Y22835D02*
Y53564D01*
X188771Y57431D01*
X190770Y55118D02*
X233155D01*
X73999Y211366D02*
X78130Y207235D01*
Y199423D02*
Y207235D01*
Y199423D02*
X81939Y195614D01*
X68443Y197516D02*
Y206610D01*
Y197516D02*
X72184Y193776D01*
X149770Y194561D02*
X153676Y190654D01*
X143687Y193582D02*
X148150Y189119D01*
X143687Y193582D02*
Y201366D01*
X149770Y194561D02*
Y207449D01*
X63687Y211366D02*
X68443Y206610D01*
X73687Y211366D02*
X73999D01*
X115169Y206305D02*
X118063Y203411D01*
X113688Y211366D02*
X119350Y205703D01*
X108749Y206305D02*
X115169D01*
X103688Y211366D02*
X108749Y206305D01*
X149770Y207449D02*
X153688Y211366D01*
X128626Y206305D02*
X133687Y211366D01*
D58*
X203919Y164567D02*
X234628Y133858D01*
X181732Y164567D02*
X203919D01*
X229068Y102398D02*
X232812D01*
X232978Y102232D01*
X234628Y100582D01*
Y78400D02*
Y100582D01*
Y103882D02*
Y133858D01*
X232978Y102232D02*
X234628Y103882D01*
X231645Y75416D02*
X234628Y78400D01*
X208909Y75416D02*
X231645D01*
X187241Y126372D02*
X192909D01*
X183514Y116535D02*
X185465Y118486D01*
Y124595D02*
X187241Y126372D01*
X185465Y118486D02*
Y124595D01*
X180709Y116535D02*
X183514D01*
X179084Y118160D02*
Y142747D01*
Y118160D02*
X180709Y116535D01*
X179084Y142747D02*
X181732Y145395D01*
Y164567D01*
X192480Y67121D02*
Y79528D01*
Y67121D02*
X195034Y64567D01*
X207087D01*
Y73594D02*
X208909Y75416D01*
X207087Y64567D02*
Y73594D01*
X180709Y103543D02*
Y116535D01*
X176772Y99606D02*
X180709Y103543D01*
X204303Y139324D02*
X206299Y141320D01*
Y154724D01*
X218648Y176576D02*
Y176849D01*
Y176576D02*
X232043Y163182D01*
X99763Y15450D02*
X153341D01*
X98209Y17004D02*
X99763Y15450D01*
X153341D02*
X160630Y22738D01*
X80796Y206305D02*
X105502D01*
X110441Y201366D01*
X113688D01*
X33687Y211366D02*
X43687D01*
D63*
X111653Y110236D02*
X122283D01*
X24645Y116142D02*
X27795Y127953D01*
X30944Y116142D02*
X34094Y127953D01*
X114803Y116142D02*
X117952Y127953D01*
D66*
X199606Y103091D02*
D03*
X205512D02*
D03*
X211417D02*
D03*
Y108996D02*
D03*
Y114902D02*
D03*
X205512D02*
D03*
X199606D02*
D03*
X205512Y108996D02*
D03*
X199606D02*
D03*
D67*
X243335Y13780D02*
D03*
X14988D02*
D03*
Y206693D02*
D03*
X243335D02*
D03*
D68*
X223688Y211366D02*
D03*
Y201366D02*
D03*
X213687Y211366D02*
D03*
Y201366D02*
D03*
X203688Y211366D02*
D03*
Y201366D02*
D03*
X193687Y211366D02*
D03*
Y201366D02*
D03*
X183687Y211366D02*
D03*
Y201366D02*
D03*
X173688Y211366D02*
D03*
Y201366D02*
D03*
X163688Y211366D02*
D03*
Y201366D02*
D03*
X153688Y211366D02*
D03*
Y201366D02*
D03*
X143687Y211366D02*
D03*
Y201366D02*
D03*
X133687Y211366D02*
D03*
Y201366D02*
D03*
X123688Y211366D02*
D03*
Y201366D02*
D03*
X113688Y211366D02*
D03*
Y201366D02*
D03*
X103688Y211366D02*
D03*
Y201366D02*
D03*
X93687Y211366D02*
D03*
Y201366D02*
D03*
X83688Y211366D02*
D03*
Y201366D02*
D03*
X73687Y211366D02*
D03*
Y201366D02*
D03*
X63687Y211366D02*
D03*
Y201366D02*
D03*
X53688Y211366D02*
D03*
Y201366D02*
D03*
X43687Y211366D02*
D03*
Y201366D02*
D03*
X33687Y211366D02*
D03*
D69*
Y201366D02*
D03*
D70*
X229068Y102398D02*
D03*
X231496Y79527D02*
D03*
X231496Y83858D02*
D03*
Y87731D02*
D03*
X231432Y95669D02*
D03*
Y91732D02*
D03*
X169108Y126772D02*
D03*
X198634Y170079D02*
D03*
X215156Y135827D02*
D03*
X180709Y116535D02*
D03*
X176772Y99606D02*
D03*
X188189Y108268D02*
D03*
X181623Y135781D02*
D03*
X204303Y139324D02*
D03*
X206299Y154724D02*
D03*
X225303Y111949D02*
D03*
X189134Y120610D02*
D03*
X172618Y99213D02*
D03*
X232283Y25591D02*
D03*
X122283Y110236D02*
D03*
X111653D02*
D03*
X27795Y127953D02*
D03*
X117952D02*
D03*
X114803Y116142D02*
D03*
X34094Y127953D02*
D03*
X30944Y116142D02*
D03*
X24645D02*
D03*
X234628Y179528D02*
D03*
X218648Y176849D02*
D03*
X238316Y43415D02*
D03*
X149449Y110481D02*
D03*
X244094Y48819D02*
D03*
X235415Y47278D02*
D03*
X236530Y51968D02*
D03*
X234628Y133858D02*
D03*
X232043Y163182D02*
D03*
X229134Y52756D02*
D03*
X214961Y63170D02*
D03*
X211024Y63779D02*
D03*
X166765Y174560D02*
D03*
Y178740D02*
D03*
X154607Y174560D02*
D03*
Y178740D02*
D03*
X160630Y22738D02*
D03*
X98209Y17004D02*
D03*
X39075Y17504D02*
D03*
X181732Y164567D02*
D03*
X106709Y18189D02*
D03*
X52142Y22433D02*
D03*
X89126Y23134D02*
D03*
X77000Y24001D02*
D03*
X62205Y26772D02*
D03*
X185811Y60630D02*
D03*
X192480Y79528D02*
D03*
X186226Y78880D02*
D03*
X198831Y22063D02*
D03*
X187610Y26772D02*
D03*
X184904Y22835D02*
D03*
X207087Y64567D02*
D03*
X80796Y206305D02*
D03*
X233799Y63650D02*
D03*
X192909Y126372D02*
D03*
M02*
