G04*
G04 #@! TF.GenerationSoftware,Altium Limited,Altium Designer,18.1.7 (191)*
G04*
G04 Layer_Physical_Order=1*
G04 Layer_Color=255*
%FSLAX25Y25*%
%MOIN*%
G70*
G01*
G75*
%ADD11C,0.01000*%
%ADD14C,0.00500*%
%ADD16C,0.00787*%
%ADD20R,0.05512X0.04724*%
%ADD21R,0.02362X0.01575*%
%ADD22R,0.01575X0.02362*%
%ADD23R,0.02362X0.01968*%
%ADD24R,0.01968X0.02362*%
%ADD25R,0.02559X0.04331*%
%ADD26R,0.02756X0.03543*%
%ADD27R,0.02559X0.04134*%
%ADD28R,0.16535X0.16535*%
%ADD29R,0.01181X0.03150*%
%ADD30R,0.03150X0.01181*%
%ADD31R,0.03937X0.07087*%
%ADD32R,0.03543X0.02756*%
%ADD33R,0.03543X0.03150*%
%ADD34R,0.03150X0.03543*%
%ADD35R,0.05512X0.05906*%
%ADD56C,0.01575*%
%ADD62C,0.01772*%
G04:AMPARAMS|DCode=63|XSize=31.5mil|YSize=31.5mil|CornerRadius=3.15mil|HoleSize=0mil|Usage=FLASHONLY|Rotation=270.000|XOffset=0mil|YOffset=0mil|HoleType=Round|Shape=RoundedRectangle|*
%AMROUNDEDRECTD63*
21,1,0.03150,0.02520,0,0,270.0*
21,1,0.02520,0.03150,0,0,270.0*
1,1,0.00630,-0.01260,-0.01260*
1,1,0.00630,-0.01260,0.01260*
1,1,0.00630,0.01260,0.01260*
1,1,0.00630,0.01260,-0.01260*
%
%ADD63ROUNDEDRECTD63*%
G04:AMPARAMS|DCode=64|XSize=17.72mil|YSize=17.72mil|CornerRadius=4.43mil|HoleSize=0mil|Usage=FLASHONLY|Rotation=180.000|XOffset=0mil|YOffset=0mil|HoleType=Round|Shape=RoundedRectangle|*
%AMROUNDEDRECTD64*
21,1,0.01772,0.00886,0,0,180.0*
21,1,0.00886,0.01772,0,0,180.0*
1,1,0.00886,-0.00443,0.00443*
1,1,0.00886,0.00443,0.00443*
1,1,0.00886,0.00443,-0.00443*
1,1,0.00886,-0.00443,-0.00443*
%
%ADD64ROUNDEDRECTD64*%
%ADD65C,0.03937*%
%ADD66C,0.01784*%
%ADD67C,0.03150*%
%ADD68C,0.21654*%
%ADD69C,0.05906*%
%ADD70R,0.05906X0.05906*%
%ADD71C,0.02362*%
G36*
X80113Y204654D02*
X80731Y204531D01*
X80948Y204213D01*
X81094Y203775D01*
X80610Y203143D01*
X80255Y202286D01*
X80133Y201366D01*
X80255Y200446D01*
X80610Y199589D01*
X81174Y198853D01*
X81911Y198288D01*
X82768Y197933D01*
X83688Y197812D01*
X84607Y197933D01*
X85401Y198262D01*
X89235Y194428D01*
X88933Y193701D01*
X58233D01*
X54702Y197232D01*
X54781Y198005D01*
X55465Y198288D01*
X56201Y198853D01*
X56765Y199589D01*
X57120Y200446D01*
X57241Y201366D01*
X57120Y202286D01*
X56765Y203143D01*
X56201Y203879D01*
X55871Y204132D01*
X56138Y204920D01*
X61237D01*
X61504Y204132D01*
X61174Y203879D01*
X60610Y203143D01*
X60255Y202286D01*
X60133Y201366D01*
X60255Y200446D01*
X60610Y199589D01*
X61174Y198853D01*
X61910Y198288D01*
X62768Y197933D01*
X63687Y197812D01*
X64607Y197933D01*
X65465Y198288D01*
X66201Y198853D01*
X66765Y199589D01*
X67120Y200446D01*
X67242Y201366D01*
X67120Y202286D01*
X66765Y203143D01*
X66201Y203879D01*
X65871Y204132D01*
X66138Y204920D01*
X70532D01*
X70785Y204366D01*
X70828Y204132D01*
X70235Y203360D01*
X69836Y202398D01*
X69766Y201866D01*
X77609D01*
X77539Y202398D01*
X77140Y203360D01*
X76547Y204132D01*
X76589Y204366D01*
X76843Y204920D01*
X79716D01*
X80113Y204654D01*
D02*
G37*
G36*
X121459Y204098D02*
X121174Y203879D01*
X120610Y203143D01*
X120255Y202286D01*
X120133Y201366D01*
X120255Y200446D01*
X120610Y199589D01*
X121174Y198853D01*
X121911Y198288D01*
X122002Y198250D01*
X121845Y197463D01*
X115530D01*
X115373Y198250D01*
X115464Y198288D01*
X116201Y198853D01*
X116765Y199589D01*
X117120Y200446D01*
X117242Y201366D01*
X117120Y202286D01*
X116958Y202678D01*
X119165Y204885D01*
X121192D01*
X121459Y204098D01*
D02*
G37*
G36*
X51504Y204132D02*
X51174Y203879D01*
X50610Y203143D01*
X50255Y202286D01*
X50133Y201366D01*
X50255Y200446D01*
X50610Y199589D01*
X51174Y198853D01*
X51911Y198288D01*
X52704Y197960D01*
Y196856D01*
X52779Y196479D01*
X52992Y196160D01*
X54724Y194428D01*
X54423Y193701D01*
X47210D01*
X44671Y196240D01*
Y197960D01*
X45465Y198288D01*
X46201Y198853D01*
X46765Y199589D01*
X47120Y200446D01*
X47242Y201366D01*
X47120Y202286D01*
X46765Y203143D01*
X46201Y203879D01*
X45871Y204132D01*
X46138Y204920D01*
X51237D01*
X51504Y204132D01*
D02*
G37*
G36*
X247442Y221389D02*
X249500Y220765D01*
X251396Y219751D01*
X253059Y218387D01*
X254423Y216724D01*
X255437Y214828D01*
X256061Y212770D01*
X256276Y210589D01*
Y17004D01*
X254282D01*
X254208Y17312D01*
X253521Y18970D01*
X252584Y20500D01*
X251419Y21864D01*
X250055Y23029D01*
X248525Y23966D01*
X246868Y24653D01*
X245123Y25072D01*
X243335Y25212D01*
X241546Y25072D01*
X239802Y24653D01*
X238144Y23966D01*
X236615Y23029D01*
X235250Y21864D01*
X234085Y20500D01*
X233148Y18970D01*
X232461Y17312D01*
X232387Y17004D01*
X229187D01*
Y17913D01*
X229187Y17945D01*
Y18701D01*
X229187Y18732D01*
Y19988D01*
X227006D01*
X224825D01*
Y18732D01*
X224825Y18701D01*
Y17945D01*
X224825Y17913D01*
Y17004D01*
X223707D01*
Y24727D01*
X223526Y25164D01*
X223089Y25345D01*
X211811D01*
X211374Y25164D01*
X211193Y24727D01*
Y17004D01*
X196247D01*
X195687Y17555D01*
X195687Y20488D01*
X195687Y21059D01*
X195687Y23638D01*
X195687Y24208D01*
X195687Y26787D01*
X195687Y27358D01*
X195687Y29937D01*
X195687Y30508D01*
X195687Y33086D01*
X195687Y33657D01*
X195687Y36236D01*
X195687Y36807D01*
X195687Y39386D01*
X195687Y39957D01*
X195687Y42570D01*
X196244Y43127D01*
X218951D01*
X219327Y43202D01*
X219647Y43415D01*
X220924Y44692D01*
X221711Y44366D01*
X221711Y42535D01*
X221711Y41965D01*
X221711Y39386D01*
X221711Y38815D01*
Y36453D01*
X221711D01*
Y36020D01*
X221711D01*
Y33303D01*
X221711D01*
Y32870D01*
X221711D01*
Y30153D01*
X225215D01*
X225254Y29382D01*
Y28579D01*
X228758D01*
Y29100D01*
X237194D01*
X237514Y29164D01*
X237786Y29345D01*
X238880Y30439D01*
X250055D01*
Y30016D01*
X250124Y29670D01*
X250319Y29377D01*
X250612Y29182D01*
X250958Y29113D01*
X253478D01*
X253823Y29182D01*
X254116Y29377D01*
X254312Y29670D01*
X254381Y30016D01*
Y32536D01*
X254312Y32881D01*
X254116Y33174D01*
X253870Y33339D01*
X253823Y33714D01*
Y33788D01*
X253870Y34164D01*
X254116Y34328D01*
X254312Y34621D01*
X254381Y34967D01*
Y37486D01*
X254312Y37832D01*
X254116Y38125D01*
X253895Y38273D01*
X253868Y38586D01*
X253953Y39098D01*
X254224Y39279D01*
X254419Y39572D01*
X254488Y39917D01*
Y42437D01*
X254419Y42783D01*
X254224Y43075D01*
X253978Y43240D01*
X253931Y43615D01*
Y43690D01*
X253978Y44065D01*
X254224Y44229D01*
X254419Y44522D01*
X254488Y44868D01*
Y47387D01*
X254419Y47733D01*
X254224Y48026D01*
X253978Y48191D01*
X253931Y48566D01*
Y48640D01*
X253978Y49015D01*
X254224Y49180D01*
X254419Y49473D01*
X254488Y49818D01*
Y52338D01*
X254419Y52684D01*
X254224Y52977D01*
X253931Y53172D01*
X253585Y53241D01*
X251065D01*
X250720Y53172D01*
X250427Y52977D01*
X250231Y52684D01*
X250162Y52338D01*
Y51915D01*
X249799D01*
X249479Y51851D01*
X249208Y51670D01*
X246629Y49092D01*
X245775Y49351D01*
X245745Y49503D01*
X245358Y50082D01*
X244778Y50469D01*
X244094Y50605D01*
X243411Y50469D01*
X242831Y50082D01*
X242547Y49656D01*
X240358D01*
X240038Y49592D01*
X239766Y49411D01*
X237943Y47587D01*
X237088Y47846D01*
X237066Y47961D01*
X236678Y48541D01*
X236099Y48928D01*
X235851Y48977D01*
X235634Y49681D01*
X236177Y50252D01*
X236530Y50182D01*
X237213Y50318D01*
X237793Y50705D01*
X238180Y51285D01*
X238316Y51968D01*
X238180Y52652D01*
X237793Y53232D01*
X237213Y53619D01*
X236981Y53665D01*
X236721Y54519D01*
X245997Y63795D01*
X246210Y64114D01*
X246285Y64491D01*
Y108232D01*
X246210Y108609D01*
X245997Y108928D01*
X233267Y121658D01*
Y144986D01*
X233192Y145362D01*
X232979Y145681D01*
X230117Y148543D01*
Y173953D01*
X230689D01*
Y177457D01*
X230689D01*
X230689Y177497D01*
X230689D01*
Y178462D01*
X233233D01*
X233365Y178264D01*
X233944Y177877D01*
X234628Y177741D01*
X235311Y177877D01*
X235891Y178264D01*
X236278Y178844D01*
X236414Y179528D01*
X236278Y180211D01*
X235891Y180791D01*
X235311Y181178D01*
X234628Y181314D01*
X233944Y181178D01*
X233365Y180791D01*
X233123Y180429D01*
X230689D01*
Y181001D01*
X227579D01*
Y177497D01*
X227579D01*
X227579Y177457D01*
X227579D01*
Y176492D01*
X227221D01*
X226845Y176417D01*
X226593Y176249D01*
X226505Y176270D01*
X225805Y176508D01*
X225805Y176508D01*
X225805Y176508D01*
X221121D01*
Y172610D01*
X225805D01*
Y173576D01*
X226272D01*
X226648Y173651D01*
X226859Y173791D01*
X227363Y173905D01*
X228055Y173520D01*
X228150Y173433D01*
Y149214D01*
X227423Y148913D01*
X214671Y161665D01*
Y197960D01*
X215464Y198288D01*
X216201Y198853D01*
X216765Y199589D01*
X217120Y200446D01*
X217242Y201366D01*
X217120Y202286D01*
X216765Y203143D01*
X216201Y203879D01*
X215464Y204444D01*
X214607Y204799D01*
X213687Y204920D01*
X212768Y204799D01*
X211911Y204444D01*
X211174Y203879D01*
X210639Y203181D01*
X210558Y203175D01*
X209851Y203488D01*
Y206186D01*
X209776Y206562D01*
X209563Y206881D01*
X206792Y209653D01*
X207120Y210446D01*
X207242Y211366D01*
X207120Y212286D01*
X206765Y213143D01*
X206201Y213879D01*
X205465Y214444D01*
X204607Y214799D01*
X203688Y214920D01*
X202768Y214799D01*
X201910Y214444D01*
X201174Y213879D01*
X200610Y213143D01*
X200255Y212286D01*
X200133Y211366D01*
X200255Y210446D01*
X200610Y209589D01*
X201174Y208853D01*
X201910Y208288D01*
X202768Y207933D01*
X203688Y207812D01*
X204607Y207933D01*
X205401Y208262D01*
X207885Y205778D01*
Y202418D01*
X207120Y202286D01*
X206765Y203143D01*
X206201Y203879D01*
X205465Y204444D01*
X204607Y204799D01*
X203688Y204920D01*
X202768Y204799D01*
X201910Y204444D01*
X201174Y203879D01*
X200610Y203143D01*
X200255Y202286D01*
X200133Y201366D01*
X200255Y200446D01*
X200610Y199589D01*
X201174Y198853D01*
X201910Y198288D01*
X202768Y197933D01*
X203688Y197812D01*
X204607Y197933D01*
X205465Y198288D01*
X206201Y198853D01*
X206765Y199589D01*
X207120Y200446D01*
X207885Y200315D01*
Y163667D01*
X207959Y163290D01*
X208172Y162971D01*
X219039Y152105D01*
X218738Y151377D01*
X175771D01*
X155083Y172065D01*
X155288Y172896D01*
X155327Y172934D01*
X155870Y173297D01*
X156057Y173577D01*
X157205D01*
Y173005D01*
X160709D01*
Y173005D01*
X164055D01*
Y173577D01*
X165315D01*
X165502Y173297D01*
X166082Y172910D01*
X166765Y172774D01*
X167449Y172910D01*
X168028Y173297D01*
X168416Y173877D01*
X168552Y174560D01*
X168416Y175244D01*
X168028Y175823D01*
X167449Y176210D01*
X167256Y176249D01*
Y177051D01*
X167449Y177090D01*
X168028Y177477D01*
X168416Y178057D01*
X168552Y178740D01*
X168416Y179424D01*
X168028Y180003D01*
X167449Y180391D01*
X166765Y180526D01*
X166082Y180391D01*
X165502Y180003D01*
X165315Y179724D01*
X164035D01*
Y180295D01*
X160531D01*
Y180295D01*
X157184D01*
Y179724D01*
X156057D01*
X155870Y180003D01*
X155291Y180391D01*
X154607Y180526D01*
X153924Y180391D01*
X153344Y180003D01*
X152957Y179424D01*
X152821Y178740D01*
X152957Y178057D01*
X153344Y177477D01*
X153924Y177090D01*
X154116Y177051D01*
Y176249D01*
X153924Y176210D01*
X153344Y175823D01*
X152981Y175280D01*
X152944Y175240D01*
X152113Y175035D01*
X137834Y189314D01*
Y193644D01*
X137778Y193701D01*
X133447D01*
X129973Y197175D01*
X129654Y197388D01*
X129278Y197463D01*
X125530D01*
X125373Y198250D01*
X125464Y198288D01*
X126201Y198853D01*
X126765Y199589D01*
X127120Y200446D01*
X127242Y201366D01*
X127120Y202286D01*
X126765Y203143D01*
X126201Y203879D01*
X125916Y204098D01*
X126183Y204885D01*
X131192D01*
X131459Y204098D01*
X131174Y203879D01*
X130610Y203143D01*
X130254Y202286D01*
X130133Y201366D01*
X130254Y200446D01*
X130610Y199589D01*
X131174Y198853D01*
X131911Y198288D01*
X132768Y197933D01*
X133687Y197812D01*
X134607Y197933D01*
X135465Y198288D01*
X136201Y198853D01*
X136410Y199127D01*
X137198Y198859D01*
Y196901D01*
X137303Y196371D01*
X137603Y195922D01*
X140169Y193357D01*
X140618Y193056D01*
X141148Y192951D01*
X163595D01*
X173335Y183211D01*
Y175508D01*
X173440Y174979D01*
X173740Y174529D01*
X174922Y173347D01*
X175371Y173047D01*
X175901Y172942D01*
X178205D01*
Y172378D01*
X179163D01*
Y167762D01*
X179268Y167232D01*
X179568Y166782D01*
X181999Y164352D01*
X182092Y163883D01*
X182479Y163304D01*
X183059Y162917D01*
X183742Y162781D01*
X184426Y162917D01*
X184823Y163182D01*
X187009D01*
Y162224D01*
X187770D01*
Y160452D01*
X187875Y159922D01*
X188175Y159473D01*
X189572Y158076D01*
X190021Y157776D01*
X190551Y157670D01*
X201753D01*
X202283Y157776D01*
X202732Y158076D01*
X204204Y159548D01*
X204504Y159997D01*
X204610Y160527D01*
Y172378D01*
X205568D01*
Y176275D01*
X200883D01*
Y172378D01*
X201840D01*
Y170386D01*
X201522Y170278D01*
X201053Y170255D01*
X200646Y170864D01*
X199925Y171346D01*
X199574Y171416D01*
Y169291D01*
Y167167D01*
X199925Y167237D01*
X200646Y167719D01*
X201053Y168327D01*
X201522Y168305D01*
X201840Y168196D01*
Y161101D01*
X201179Y160440D01*
X191125D01*
X190539Y161025D01*
Y162224D01*
X191300D01*
Y166909D01*
X190539D01*
Y167160D01*
X190434Y167690D01*
X190134Y168140D01*
X189599Y168674D01*
X189803Y169462D01*
X189803D01*
Y174934D01*
X186102D01*
Y169462D01*
X186567D01*
Y168362D01*
X186673Y167833D01*
X186817Y167617D01*
X187009Y166909D01*
X187009Y166909D01*
X187009D01*
X187009Y166909D01*
Y165952D01*
X184823D01*
X184426Y166217D01*
X183957Y166310D01*
X181932Y168335D01*
Y172378D01*
X182890D01*
Y176275D01*
X178205D01*
Y175711D01*
X176475D01*
X176104Y176082D01*
Y183785D01*
X176104Y183785D01*
X175999Y184315D01*
X175699Y184764D01*
X165148Y195315D01*
X164698Y195615D01*
X164168Y195721D01*
X141722D01*
X139968Y197475D01*
Y199174D01*
X140755Y199400D01*
X141174Y198853D01*
X141911Y198288D01*
X142768Y197933D01*
X143687Y197812D01*
X144607Y197933D01*
X145465Y198288D01*
X146201Y198853D01*
X146765Y199589D01*
X147120Y200446D01*
X147241Y201366D01*
X147120Y202286D01*
X146765Y203143D01*
X146201Y203879D01*
X145871Y204132D01*
X146138Y204920D01*
X150532D01*
X150786Y204366D01*
X150828Y204132D01*
X150235Y203360D01*
X149837Y202398D01*
X149767Y201866D01*
X157608D01*
X157538Y202398D01*
X157140Y203360D01*
X156880Y203699D01*
X157194Y204583D01*
X157562Y204669D01*
X157584Y204654D01*
X158268Y204518D01*
X158951Y204654D01*
X159531Y205042D01*
X159918Y205621D01*
X160054Y206305D01*
X159918Y206988D01*
X159531Y207568D01*
X158951Y207955D01*
X158268Y208091D01*
X157584Y207955D01*
X157187Y207689D01*
X155978D01*
X155710Y208477D01*
X156201Y208853D01*
X156765Y209589D01*
X157120Y210446D01*
X157241Y211366D01*
X157120Y212286D01*
X156765Y213143D01*
X156201Y213879D01*
X155464Y214444D01*
X154607Y214799D01*
X153688Y214920D01*
X152768Y214799D01*
X151910Y214444D01*
X151174Y213879D01*
X150610Y213143D01*
X150254Y212286D01*
X150133Y211366D01*
X150254Y210446D01*
X150610Y209589D01*
X151174Y208853D01*
X151665Y208477D01*
X151397Y207689D01*
X145978D01*
X145710Y208477D01*
X146201Y208853D01*
X146765Y209589D01*
X147120Y210446D01*
X147241Y211366D01*
X147120Y212286D01*
X146765Y213143D01*
X146201Y213879D01*
X145465Y214444D01*
X144607Y214799D01*
X143687Y214920D01*
X142768Y214799D01*
X141911Y214444D01*
X141174Y213879D01*
X140610Y213143D01*
X140254Y212286D01*
X140133Y211366D01*
X140254Y210446D01*
X140610Y209589D01*
X141174Y208853D01*
X141665Y208477D01*
X141397Y207689D01*
X140950D01*
X140420Y207584D01*
X139971Y207284D01*
X138583Y205895D01*
X137229Y207249D01*
X136779Y207550D01*
X136249Y207655D01*
X135912D01*
X135665Y208442D01*
X136201Y208853D01*
X136765Y209589D01*
X137120Y210446D01*
X137241Y211366D01*
X137120Y212286D01*
X136765Y213143D01*
X136201Y213879D01*
X135465Y214444D01*
X134607Y214799D01*
X133687Y214920D01*
X132768Y214799D01*
X131911Y214444D01*
X131174Y213879D01*
X130610Y213143D01*
X130254Y212286D01*
X130133Y211366D01*
X130254Y210446D01*
X130610Y209589D01*
X131174Y208853D01*
X131710Y208442D01*
X131463Y207655D01*
X126638D01*
X126370Y208442D01*
X126507Y208547D01*
X127140Y209373D01*
X127539Y210334D01*
X127609Y210866D01*
X119766D01*
X119836Y210334D01*
X120235Y209373D01*
X120868Y208547D01*
X121005Y208442D01*
X120737Y207655D01*
X118591D01*
X118061Y207550D01*
X117612Y207249D01*
X114999Y204637D01*
X114607Y204799D01*
X113688Y204920D01*
X112768Y204799D01*
X111910Y204444D01*
X111174Y203879D01*
X110610Y203143D01*
X110255Y202286D01*
X110133Y201366D01*
X110255Y200446D01*
X110610Y199589D01*
X111174Y198853D01*
X111910Y198288D01*
X112002Y198250D01*
X111845Y197463D01*
X108982D01*
X106792Y199653D01*
X107120Y200446D01*
X107241Y201366D01*
X107120Y202286D01*
X106765Y203143D01*
X106201Y203879D01*
X105464Y204444D01*
X104607Y204799D01*
X103688Y204920D01*
X102768Y204799D01*
X101910Y204444D01*
X101174Y203879D01*
X100610Y203143D01*
X100254Y202286D01*
X100134Y201366D01*
X100254Y200446D01*
X100610Y199589D01*
X101174Y198853D01*
X101910Y198288D01*
X102768Y197933D01*
X103688Y197812D01*
X104607Y197933D01*
X105401Y198262D01*
X106815Y196848D01*
X106514Y196120D01*
X98033D01*
X96114Y198040D01*
X96165Y198826D01*
X96201Y198853D01*
X96765Y199589D01*
X97120Y200446D01*
X97241Y201366D01*
X97120Y202286D01*
X96765Y203143D01*
X96201Y203879D01*
X95464Y204444D01*
X94607Y204799D01*
X93687Y204920D01*
X92768Y204799D01*
X91910Y204444D01*
X91174Y203879D01*
X90610Y203143D01*
X90254Y202286D01*
X90134Y201366D01*
X90254Y200446D01*
X90610Y199589D01*
X91174Y198853D01*
X91910Y198288D01*
X92768Y197933D01*
X93541Y197831D01*
X95960Y195412D01*
X95659Y194684D01*
X91760D01*
X86792Y199653D01*
X87120Y200446D01*
X87242Y201366D01*
X87120Y202286D01*
X86765Y203143D01*
X86201Y203879D01*
X85465Y204444D01*
X84607Y204799D01*
X83688Y204920D01*
X82852Y204810D01*
X82644Y205001D01*
X82352Y205479D01*
X82447Y205621D01*
X82583Y206305D01*
X82447Y206988D01*
X82238Y207300D01*
X82760Y207936D01*
X82768Y207933D01*
X83688Y207812D01*
X84607Y207933D01*
X85465Y208288D01*
X86201Y208853D01*
X86765Y209589D01*
X87120Y210446D01*
X87242Y211366D01*
X87120Y212286D01*
X86765Y213143D01*
X86201Y213879D01*
X85465Y214444D01*
X84607Y214799D01*
X83688Y214920D01*
X82768Y214799D01*
X81911Y214444D01*
X81174Y213879D01*
X80610Y213143D01*
X80255Y212286D01*
X80133Y211366D01*
X80255Y210446D01*
X80610Y209589D01*
X81174Y208853D01*
X81235Y208806D01*
X80901Y208070D01*
X80796Y208091D01*
X80113Y207955D01*
X79716Y207689D01*
X75978D01*
X75710Y208477D01*
X76201Y208853D01*
X76765Y209589D01*
X77120Y210446D01*
X77241Y211366D01*
X77120Y212286D01*
X76765Y213143D01*
X76201Y213879D01*
X75464Y214444D01*
X74607Y214799D01*
X73687Y214920D01*
X72768Y214799D01*
X71911Y214444D01*
X71174Y213879D01*
X70610Y213143D01*
X70254Y212286D01*
X70134Y211366D01*
X70254Y210446D01*
X70610Y209589D01*
X71174Y208853D01*
X71665Y208477D01*
X71397Y207689D01*
X65978D01*
X65710Y208477D01*
X66201Y208853D01*
X66765Y209589D01*
X67120Y210446D01*
X67242Y211366D01*
X67120Y212286D01*
X66765Y213143D01*
X66201Y213879D01*
X65465Y214444D01*
X64607Y214799D01*
X63687Y214920D01*
X62768Y214799D01*
X61910Y214444D01*
X61174Y213879D01*
X60610Y213143D01*
X60255Y212286D01*
X60133Y211366D01*
X60255Y210446D01*
X60610Y209589D01*
X61174Y208853D01*
X61665Y208477D01*
X61397Y207689D01*
X56683D01*
X56415Y208477D01*
X56507Y208547D01*
X57140Y209373D01*
X57538Y210334D01*
X57608Y210866D01*
X49766D01*
X49837Y210334D01*
X50235Y209373D01*
X50868Y208547D01*
X50960Y208477D01*
X50692Y207689D01*
X45978D01*
X45710Y208477D01*
X46201Y208853D01*
X46765Y209589D01*
X47120Y210446D01*
X47242Y211366D01*
X47120Y212286D01*
X46765Y213143D01*
X46201Y213879D01*
X45465Y214444D01*
X44607Y214799D01*
X43687Y214920D01*
X42768Y214799D01*
X41910Y214444D01*
X41174Y213879D01*
X40610Y213143D01*
X40447Y212751D01*
X36928D01*
X36765Y213143D01*
X36201Y213879D01*
X35465Y214444D01*
X34607Y214799D01*
X33687Y214920D01*
X32768Y214799D01*
X31910Y214444D01*
X31174Y213879D01*
X30610Y213143D01*
X30255Y212286D01*
X30133Y211366D01*
X30255Y210446D01*
X30610Y209589D01*
X31174Y208853D01*
X31910Y208288D01*
X32768Y207933D01*
X33687Y207812D01*
X34607Y207933D01*
X35465Y208288D01*
X36201Y208853D01*
X36765Y209589D01*
X36928Y209981D01*
X40447D01*
X40610Y209589D01*
X41174Y208853D01*
X41665Y208477D01*
X41397Y207689D01*
X39193D01*
X38720Y207784D01*
X38190Y207678D01*
X37741Y207378D01*
X35253Y204890D01*
X30164D01*
Y197843D01*
X37211D01*
Y202931D01*
X39200Y204920D01*
X41237D01*
X41504Y204132D01*
X41174Y203879D01*
X40610Y203143D01*
X40255Y202286D01*
X40133Y201366D01*
X40255Y200446D01*
X40610Y199589D01*
X41174Y198853D01*
X41910Y198288D01*
X42704Y197960D01*
Y195832D01*
X42779Y195456D01*
X42992Y195137D01*
X43701Y194428D01*
X43399Y193701D01*
X29134D01*
Y221604D01*
X245261D01*
X247442Y221389D01*
D02*
G37*
G36*
X210639Y199551D02*
X211174Y198853D01*
X211911Y198288D01*
X212704Y197960D01*
Y162335D01*
X211917Y162009D01*
X209851Y164074D01*
Y199244D01*
X210558Y199557D01*
X210639Y199551D01*
D02*
G37*
G36*
X159192Y146718D02*
X159485Y146522D01*
Y145071D01*
X163383D01*
Y146430D01*
X168715D01*
X171746Y143399D01*
X172065Y143186D01*
X172441Y143111D01*
X216468D01*
X217120Y142460D01*
X216818Y141732D01*
X156914D01*
Y145071D01*
X157477D01*
Y147318D01*
X158265Y147645D01*
X159192Y146718D01*
D02*
G37*
G36*
X157498Y158031D02*
Y156665D01*
X157477Y155886D01*
X153580D01*
Y151201D01*
X154144D01*
Y149756D01*
X153580D01*
Y145071D01*
X154144D01*
Y141732D01*
X137834D01*
Y176666D01*
X138562Y176968D01*
X157498Y158031D01*
D02*
G37*
G36*
X244318Y107825D02*
Y77242D01*
X244075Y76555D01*
X243531Y76555D01*
X239390D01*
Y75393D01*
X237488D01*
X237488Y75393D01*
X237271Y75571D01*
Y75768D01*
X232192D01*
Y67764D01*
X231376Y66948D01*
X227902D01*
X227429Y67539D01*
Y75768D01*
X222350D01*
Y70505D01*
X221726Y69881D01*
X220491D01*
Y71043D01*
X215806D01*
Y66752D01*
X220491D01*
Y67914D01*
X222133D01*
X222350Y67736D01*
Y67539D01*
X222882D01*
X223208Y66752D01*
X217453Y60996D01*
X217337Y60823D01*
X216573Y60823D01*
X215911Y60823D01*
X215852Y60976D01*
X215780Y61610D01*
X216224Y61907D01*
X216611Y62486D01*
X216747Y63170D01*
X216611Y63854D01*
X216224Y64433D01*
X215644Y64820D01*
X214961Y64956D01*
X214277Y64820D01*
X213698Y64433D01*
X213532Y64185D01*
X212696Y64352D01*
X212674Y64463D01*
X212287Y65043D01*
X211707Y65430D01*
X211282Y65514D01*
X210978Y66254D01*
X211393Y66752D01*
X214362D01*
Y71043D01*
X209677D01*
Y69116D01*
X208168Y67607D01*
X207440Y67908D01*
Y71043D01*
X202755D01*
Y70283D01*
X201173D01*
Y70650D01*
X196488D01*
Y66752D01*
X197446D01*
Y64072D01*
X197440Y64066D01*
X196720Y63684D01*
X194439Y65965D01*
X194766Y66752D01*
X194823D01*
Y71043D01*
X190137D01*
Y67221D01*
X189350Y66895D01*
X188568Y67677D01*
Y71043D01*
X183883D01*
Y66752D01*
X185576D01*
X190349Y61979D01*
X190048Y61252D01*
X188236D01*
Y61252D01*
X187694Y61737D01*
X187384Y62202D01*
X186662Y62685D01*
X186311Y62754D01*
Y60630D01*
Y58506D01*
X186662Y58575D01*
X187227Y58953D01*
X187788Y58767D01*
X188014Y58604D01*
Y56890D01*
X188017D01*
X188640Y56492D01*
X188640Y56102D01*
X188640Y53559D01*
X188640Y52988D01*
X188640Y50409D01*
X188640Y49839D01*
X188640Y47260D01*
X188640Y46689D01*
X188640Y44110D01*
X188640Y43539D01*
Y41177D01*
X192144Y41177D01*
X192183Y40406D01*
X192183Y39386D01*
X192183Y38366D01*
X192144Y37594D01*
X191396Y37594D01*
X188640D01*
X188640Y34661D01*
X188640Y34091D01*
X188640Y31512D01*
X188640Y30941D01*
Y29095D01*
X188616Y29048D01*
X187884Y28504D01*
X187610Y28558D01*
X186927Y28422D01*
X186347Y28035D01*
X185960Y27455D01*
X185824Y26772D01*
X185960Y26088D01*
X186347Y25508D01*
X186464Y25431D01*
X186453Y24727D01*
X185769Y24364D01*
X185588Y24485D01*
X184904Y24621D01*
X184221Y24485D01*
X183641Y24098D01*
X183254Y23518D01*
X183118Y22835D01*
X183254Y22151D01*
X183641Y21572D01*
X183923Y21383D01*
X183996Y21019D01*
X184209Y20700D01*
X185116Y19793D01*
X185435Y19579D01*
X185811Y19505D01*
X188640D01*
Y19130D01*
X191552Y19130D01*
X191606Y19079D01*
X191914Y18342D01*
X191575Y17945D01*
X188211D01*
Y17004D01*
X181943D01*
Y75197D01*
X181961Y75197D01*
X181943Y75801D01*
X181941Y75806D01*
X181939Y75870D01*
X181927Y75978D01*
X181866Y76524D01*
X181831Y76587D01*
X181835Y76659D01*
X181617Y77280D01*
X181570Y77334D01*
X181558Y77405D01*
X181207Y77962D01*
X181149Y78004D01*
X181121Y78070D01*
X180656Y78536D01*
X180589Y78563D01*
X180547Y78622D01*
X179990Y78972D01*
X179919Y78984D01*
X179866Y79032D01*
X179244Y79250D01*
X179173Y79246D01*
X179110Y79281D01*
X179004Y79292D01*
X178731Y79405D01*
X177603Y79554D01*
Y79533D01*
X176768D01*
Y79554D01*
X175629Y79404D01*
X174569Y78965D01*
X173658Y78266D01*
X172959Y77355D01*
X172520Y76295D01*
X172370Y75156D01*
X172391D01*
Y17004D01*
X164135D01*
X163834Y17732D01*
X168511Y22409D01*
X168811Y22858D01*
X168916Y23388D01*
Y76801D01*
X173015Y80899D01*
X184011D01*
X184425Y80111D01*
X184171Y79731D01*
X184101Y79380D01*
X188350D01*
X188280Y79731D01*
X188027Y80111D01*
X188397Y80816D01*
X189169Y80880D01*
X190736Y79313D01*
X190830Y78844D01*
X191095Y78447D01*
Y76555D01*
X190137D01*
Y72264D01*
X194823D01*
Y73025D01*
X196488D01*
Y72658D01*
X201173D01*
Y76555D01*
X196488D01*
Y75794D01*
X194823D01*
Y76555D01*
X193865D01*
Y78447D01*
X194130Y78844D01*
X194266Y79528D01*
X194130Y80211D01*
X193743Y80791D01*
X193164Y81178D01*
X192695Y81271D01*
X190703Y83263D01*
X190684Y83379D01*
X191262Y84075D01*
X193912D01*
X196202Y81785D01*
X196521Y81572D01*
X196898Y81497D01*
X197958D01*
Y79547D01*
X204612D01*
Y84219D01*
X204992Y84599D01*
X206190D01*
Y82980D01*
X213702D01*
Y84599D01*
X215732D01*
Y83819D01*
X221276D01*
Y84599D01*
X222835D01*
Y94807D01*
X226176Y98149D01*
X226476Y98598D01*
X226582Y99128D01*
Y100252D01*
X227539D01*
Y100373D01*
X228327Y100786D01*
X228384Y100747D01*
X229068Y100611D01*
X229662Y100729D01*
X229847Y100681D01*
X230449Y100266D01*
Y97119D01*
X230169Y96932D01*
X229782Y96353D01*
X229646Y95669D01*
X229782Y94986D01*
X230169Y94406D01*
X230570Y94138D01*
X230627Y93897D01*
Y93505D01*
X230570Y93263D01*
X230169Y92995D01*
X229782Y92416D01*
X229646Y91732D01*
X229782Y91049D01*
X230169Y90469D01*
X230650Y90148D01*
X230724Y89799D01*
X230679Y89293D01*
X230233Y88994D01*
X229846Y88415D01*
X229710Y87731D01*
X229846Y87048D01*
X230233Y86468D01*
X230586Y86232D01*
X230617Y86133D01*
Y85457D01*
X230586Y85357D01*
X230233Y85121D01*
X229846Y84542D01*
X229710Y83858D01*
X229846Y83175D01*
X230233Y82595D01*
X230813Y82208D01*
X230997Y81368D01*
X230918Y81199D01*
X230812Y81178D01*
X230233Y80791D01*
X229845Y80211D01*
X229709Y79527D01*
X229845Y78844D01*
X230233Y78264D01*
X230812Y77877D01*
X231496Y77741D01*
X232179Y77877D01*
X232759Y78264D01*
X233146Y78844D01*
X233282Y79527D01*
X233174Y80071D01*
X238136Y85033D01*
X238349Y85352D01*
X238424Y85728D01*
Y112606D01*
X239211Y112932D01*
X244318Y107825D01*
D02*
G37*
G36*
X239390Y72264D02*
X243115Y72264D01*
X243523Y71476D01*
X243520Y71472D01*
X242232D01*
Y68898D01*
Y66323D01*
X244318D01*
Y64898D01*
X231610Y52190D01*
X230885Y52578D01*
X230920Y52756D01*
X230784Y53439D01*
X230397Y54019D01*
X229817Y54406D01*
X229134Y54542D01*
X228450Y54406D01*
X227871Y54019D01*
X227586Y53593D01*
X218643D01*
X217932Y53775D01*
X217932Y57279D01*
X218703Y57319D01*
X219152D01*
X219506Y57319D01*
Y57319D01*
X219939D01*
Y57319D01*
X222302D01*
X222656Y57319D01*
Y57319D01*
X223089D01*
Y57319D01*
X225200D01*
X225809Y56890D01*
X226415Y56890D01*
X227097D01*
Y59071D01*
Y61252D01*
X225809D01*
X225200Y60823D01*
X224418D01*
X224117Y61550D01*
X227548Y64981D01*
X231118D01*
X231257Y64875D01*
X231683Y64194D01*
X231674Y64150D01*
X235923D01*
X235853Y64501D01*
X235371Y65222D01*
X234650Y65704D01*
X234131Y65807D01*
X233831Y66622D01*
X234749Y67539D01*
X237271D01*
Y72802D01*
X237895Y73426D01*
X239390D01*
Y72264D01*
D02*
G37*
G36*
X199467Y57279D02*
X199467Y56531D01*
Y53775D01*
X202400Y53775D01*
X202971Y53775D01*
X205550Y53775D01*
X206120Y53775D01*
X208699Y53775D01*
X209270Y53775D01*
X211849Y53775D01*
X212420Y53775D01*
X214161D01*
Y53505D01*
X214225Y53185D01*
X214407Y52914D01*
X215156Y52164D01*
X215428Y51983D01*
X215748Y51919D01*
X227586D01*
X227871Y51493D01*
X228450Y51106D01*
X229068Y50983D01*
X229243Y50697D01*
X229431Y50226D01*
X229115Y49818D01*
X223676D01*
X223299Y49743D01*
X222980Y49530D01*
X218544Y45094D01*
X196244D01*
X195687Y45650D01*
X195687Y46256D01*
X195687Y48835D01*
X195687Y49405D01*
Y51768D01*
X192183Y51768D01*
X192144Y52539D01*
X192144Y53559D01*
X192144Y54130D01*
X192144Y56492D01*
X192105Y56531D01*
X192432Y57319D01*
X194526Y57319D01*
X195097Y57319D01*
X197676Y57319D01*
X198696Y57319D01*
X199467Y57279D01*
D02*
G37*
G36*
X250055Y34967D02*
X250124Y34621D01*
X250319Y34328D01*
X250565Y34164D01*
X250612Y33788D01*
Y33714D01*
X250565Y33339D01*
X250319Y33174D01*
X250124Y32881D01*
X250055Y32536D01*
Y32113D01*
X239179D01*
X238853Y32900D01*
X241342Y35390D01*
X250055D01*
Y34967D01*
D02*
G37*
G36*
X158681Y82894D02*
X163366D01*
Y83314D01*
X163635Y83504D01*
X164423Y83097D01*
Y82894D01*
X169108D01*
Y84056D01*
X171231D01*
X171470Y83268D01*
X171462Y83263D01*
X166552Y78353D01*
X166252Y77904D01*
X166147Y77374D01*
Y23962D01*
X159189Y17004D01*
X158924Y16739D01*
X108448D01*
X108181Y17239D01*
X108359Y17505D01*
X108495Y18189D01*
X108359Y18873D01*
X108137Y19205D01*
X108404Y19705D01*
X108524D01*
Y23275D01*
X108877Y23629D01*
X137834Y23625D01*
Y84599D01*
X158681D01*
Y82894D01*
D02*
G37*
G36*
X45689Y23636D02*
Y19705D01*
X49390D01*
Y21359D01*
X50752D01*
X50879Y21170D01*
X51458Y20783D01*
X52142Y20647D01*
X52825Y20783D01*
X53405Y21170D01*
X53792Y21749D01*
X53928Y22433D01*
X53792Y23117D01*
X53740Y23194D01*
X53976Y23635D01*
X59862Y23634D01*
Y20295D01*
X64547D01*
Y23280D01*
X64901Y23634D01*
X70098Y23633D01*
Y20295D01*
X74783D01*
Y21261D01*
X75243D01*
X75619Y21336D01*
X75938Y21549D01*
X76670Y22281D01*
X77000Y22215D01*
X77684Y22351D01*
X78263Y22738D01*
X78650Y23318D01*
X78713Y23632D01*
X81122Y23632D01*
Y20131D01*
X85807D01*
Y21126D01*
X87913D01*
X88290Y21201D01*
X88609Y21414D01*
X88640Y21445D01*
X89126Y21348D01*
X89810Y21484D01*
X90389Y21871D01*
X90776Y22451D01*
X90912Y23134D01*
X90891Y23244D01*
X91208Y23631D01*
X92303Y23630D01*
Y8638D01*
X90561Y6897D01*
X85807D01*
Y7673D01*
X81122D01*
Y6897D01*
X74783D01*
Y7658D01*
X70098D01*
Y6897D01*
X64547D01*
Y7658D01*
X59862D01*
Y6897D01*
X57388D01*
X44692Y19592D01*
Y23136D01*
X45186Y23636D01*
X45689Y23636D01*
D02*
G37*
G36*
X36795Y23637D02*
Y22842D01*
X39075D01*
Y21843D01*
X36795D01*
Y19276D01*
X37034D01*
X37301Y18776D01*
X37020Y18355D01*
X36950Y18004D01*
X41199D01*
X41129Y18355D01*
X40849Y18776D01*
X41116Y19276D01*
X41354D01*
Y22435D01*
X41854Y22702D01*
X41922Y22657D01*
Y19019D01*
X42028Y18489D01*
X42328Y18040D01*
X55835Y4532D01*
X56284Y4232D01*
X56814Y4127D01*
X56814Y4127D01*
X59862D01*
Y3366D01*
X64547D01*
Y4127D01*
X70098D01*
Y3366D01*
X74783D01*
Y4127D01*
X81122D01*
Y3382D01*
X85807D01*
Y4127D01*
X91135D01*
X91665Y4232D01*
X92114Y4532D01*
X94667Y7085D01*
X94967Y7535D01*
X95072Y8065D01*
Y23277D01*
X95426Y23630D01*
X95929Y23630D01*
Y22842D01*
X98209D01*
Y21843D01*
X95929D01*
Y19276D01*
X96782D01*
X96934Y18776D01*
X96636Y18577D01*
X96154Y17855D01*
X96084Y17504D01*
X100333D01*
X100263Y17855D01*
X99781Y18577D01*
X99484Y18776D01*
X99635Y19276D01*
X100488D01*
Y19276D01*
X100977Y19249D01*
Y16929D01*
X101083Y16399D01*
X101383Y15950D01*
X102958Y14375D01*
X103407Y14075D01*
X103937Y13969D01*
X159498D01*
X160028Y14075D01*
X160477Y14375D01*
X162530Y16428D01*
X162992Y16237D01*
Y837D01*
X31496D01*
Y23284D01*
X31850Y23638D01*
X36795Y23637D01*
D02*
G37*
%LPC*%
G36*
X77609Y200866D02*
X74187D01*
Y197445D01*
X74719Y197515D01*
X75681Y197913D01*
X76507Y198547D01*
X77140Y199373D01*
X77539Y200334D01*
X77609Y200866D01*
D02*
G37*
G36*
X73188D02*
X69766D01*
X69836Y200334D01*
X70235Y199373D01*
X70868Y198547D01*
X71694Y197913D01*
X72656Y197515D01*
X73188Y197445D01*
Y200866D01*
D02*
G37*
G36*
X194187Y215287D02*
Y211866D01*
X197608D01*
X197538Y212398D01*
X197140Y213360D01*
X196507Y214185D01*
X195681Y214819D01*
X194719Y215217D01*
X194187Y215287D01*
D02*
G37*
G36*
X193187D02*
X192656Y215217D01*
X191694Y214819D01*
X190868Y214185D01*
X190235Y213360D01*
X189837Y212398D01*
X189767Y211866D01*
X193187D01*
Y215287D01*
D02*
G37*
G36*
X174188D02*
Y211866D01*
X177609D01*
X177539Y212398D01*
X177140Y213360D01*
X176507Y214185D01*
X175681Y214819D01*
X174719Y215217D01*
X174188Y215287D01*
D02*
G37*
G36*
X173187D02*
X172656Y215217D01*
X171694Y214819D01*
X170868Y214185D01*
X170235Y213360D01*
X169836Y212398D01*
X169766Y211866D01*
X173187D01*
Y215287D01*
D02*
G37*
G36*
X124188D02*
Y211866D01*
X127609D01*
X127539Y212398D01*
X127140Y213360D01*
X126507Y214185D01*
X125681Y214819D01*
X124719Y215217D01*
X124188Y215287D01*
D02*
G37*
G36*
X123187D02*
X122656Y215217D01*
X121694Y214819D01*
X120868Y214185D01*
X120235Y213360D01*
X119836Y212398D01*
X119766Y211866D01*
X123187D01*
Y215287D01*
D02*
G37*
G36*
X94187D02*
Y211866D01*
X97609D01*
X97539Y212398D01*
X97140Y213360D01*
X96507Y214185D01*
X95681Y214819D01*
X94719Y215217D01*
X94187Y215287D01*
D02*
G37*
G36*
X93187D02*
X92656Y215217D01*
X91694Y214819D01*
X90868Y214185D01*
X90235Y213360D01*
X89837Y212398D01*
X89766Y211866D01*
X93187D01*
Y215287D01*
D02*
G37*
G36*
X54188D02*
Y211866D01*
X57608D01*
X57538Y212398D01*
X57140Y213360D01*
X56507Y214185D01*
X55681Y214819D01*
X54719Y215217D01*
X54188Y215287D01*
D02*
G37*
G36*
X53188D02*
X52656Y215217D01*
X51694Y214819D01*
X50868Y214185D01*
X50235Y213360D01*
X49837Y212398D01*
X49766Y211866D01*
X53188D01*
Y215287D01*
D02*
G37*
G36*
X223688Y214920D02*
X222768Y214799D01*
X221911Y214444D01*
X221174Y213879D01*
X220610Y213143D01*
X220255Y212286D01*
X220133Y211366D01*
X220255Y210446D01*
X220610Y209589D01*
X221174Y208853D01*
X221911Y208288D01*
X222768Y207933D01*
X223688Y207812D01*
X224607Y207933D01*
X225465Y208288D01*
X226201Y208853D01*
X226765Y209589D01*
X227120Y210446D01*
X227241Y211366D01*
X227120Y212286D01*
X226765Y213143D01*
X226201Y213879D01*
X225465Y214444D01*
X224607Y214799D01*
X223688Y214920D01*
D02*
G37*
G36*
X213687D02*
X212768Y214799D01*
X211911Y214444D01*
X211174Y213879D01*
X210610Y213143D01*
X210255Y212286D01*
X210133Y211366D01*
X210255Y210446D01*
X210610Y209589D01*
X211174Y208853D01*
X211911Y208288D01*
X212768Y207933D01*
X213687Y207812D01*
X214607Y207933D01*
X215464Y208288D01*
X216201Y208853D01*
X216765Y209589D01*
X217120Y210446D01*
X217242Y211366D01*
X217120Y212286D01*
X216765Y213143D01*
X216201Y213879D01*
X215464Y214444D01*
X214607Y214799D01*
X213687Y214920D01*
D02*
G37*
G36*
X183687D02*
X182768Y214799D01*
X181911Y214444D01*
X181174Y213879D01*
X180610Y213143D01*
X180254Y212286D01*
X180133Y211366D01*
X180254Y210446D01*
X180610Y209589D01*
X181174Y208853D01*
X181911Y208288D01*
X182768Y207933D01*
X183687Y207812D01*
X184607Y207933D01*
X185465Y208288D01*
X186201Y208853D01*
X186765Y209589D01*
X187120Y210446D01*
X187241Y211366D01*
X187120Y212286D01*
X186765Y213143D01*
X186201Y213879D01*
X185465Y214444D01*
X184607Y214799D01*
X183687Y214920D01*
D02*
G37*
G36*
X113688D02*
X112768Y214799D01*
X111910Y214444D01*
X111174Y213879D01*
X110610Y213143D01*
X110255Y212286D01*
X110133Y211366D01*
X110255Y210446D01*
X110610Y209589D01*
X111174Y208853D01*
X111910Y208288D01*
X112768Y207933D01*
X113688Y207812D01*
X114607Y207933D01*
X115464Y208288D01*
X116201Y208853D01*
X116765Y209589D01*
X117120Y210446D01*
X117242Y211366D01*
X117120Y212286D01*
X116765Y213143D01*
X116201Y213879D01*
X115464Y214444D01*
X114607Y214799D01*
X113688Y214920D01*
D02*
G37*
G36*
X103688D02*
X102768Y214799D01*
X101910Y214444D01*
X101174Y213879D01*
X100610Y213143D01*
X100254Y212286D01*
X100134Y211366D01*
X100254Y210446D01*
X100610Y209589D01*
X101174Y208853D01*
X101910Y208288D01*
X102768Y207933D01*
X103688Y207812D01*
X104607Y207933D01*
X105464Y208288D01*
X106201Y208853D01*
X106765Y209589D01*
X107120Y210446D01*
X107241Y211366D01*
X107120Y212286D01*
X106765Y213143D01*
X106201Y213879D01*
X105464Y214444D01*
X104607Y214799D01*
X103688Y214920D01*
D02*
G37*
G36*
X197608Y210866D02*
X194187D01*
Y207445D01*
X194719Y207515D01*
X195681Y207913D01*
X196507Y208547D01*
X197140Y209373D01*
X197538Y210334D01*
X197608Y210866D01*
D02*
G37*
G36*
X193187D02*
X189767D01*
X189837Y210334D01*
X190235Y209373D01*
X190868Y208547D01*
X191694Y207913D01*
X192656Y207515D01*
X193187Y207445D01*
Y210866D01*
D02*
G37*
G36*
X177609D02*
X174188D01*
Y207445D01*
X174719Y207515D01*
X175681Y207913D01*
X176507Y208547D01*
X177140Y209373D01*
X177539Y210334D01*
X177609Y210866D01*
D02*
G37*
G36*
X173187D02*
X169766D01*
X169836Y210334D01*
X170235Y209373D01*
X170868Y208547D01*
X171694Y207913D01*
X172656Y207515D01*
X173187Y207445D01*
Y210866D01*
D02*
G37*
G36*
X97609D02*
X94187D01*
Y207445D01*
X94719Y207515D01*
X95681Y207913D01*
X96507Y208547D01*
X97140Y209373D01*
X97539Y210334D01*
X97609Y210866D01*
D02*
G37*
G36*
X93187D02*
X89766D01*
X89837Y210334D01*
X90235Y209373D01*
X90868Y208547D01*
X91694Y207913D01*
X92656Y207515D01*
X93187Y207445D01*
Y210866D01*
D02*
G37*
G36*
X163688Y214920D02*
X162768Y214799D01*
X161910Y214444D01*
X161174Y213879D01*
X160610Y213143D01*
X160255Y212286D01*
X160133Y211366D01*
X160255Y210446D01*
X160610Y209589D01*
X161174Y208853D01*
X161910Y208288D01*
X162768Y207933D01*
X163688Y207812D01*
X164607Y207933D01*
X165293Y208217D01*
X167692Y205818D01*
Y202965D01*
X166904Y202808D01*
X166765Y203143D01*
X166201Y203879D01*
X165464Y204444D01*
X164607Y204799D01*
X163688Y204920D01*
X162768Y204799D01*
X161910Y204444D01*
X161174Y203879D01*
X160610Y203143D01*
X160255Y202286D01*
X160133Y201366D01*
X160255Y200446D01*
X160610Y199589D01*
X161174Y198853D01*
X161910Y198288D01*
X162768Y197933D01*
X163688Y197812D01*
X164607Y197933D01*
X165293Y198217D01*
X179242Y184267D01*
X179596Y184031D01*
X180014Y183948D01*
X186102D01*
Y182738D01*
X185426D01*
X185008Y182655D01*
X184654Y182419D01*
X183677Y181443D01*
X182890Y181610D01*
Y182181D01*
X178205D01*
Y178283D01*
X182890D01*
Y179140D01*
X184011D01*
X184429Y179223D01*
X184783Y179460D01*
X185315Y179991D01*
X186102Y179665D01*
Y178910D01*
X189413D01*
Y178481D01*
X191193D01*
Y181647D01*
X192193D01*
Y178481D01*
X193972D01*
Y178910D01*
X197283D01*
Y179783D01*
X198071Y180109D01*
X198720Y179460D01*
X199074Y179223D01*
X199492Y179140D01*
X200883D01*
Y178283D01*
X205568D01*
Y182181D01*
X200883D01*
Y181324D01*
X199944D01*
X198849Y182419D01*
X198495Y182655D01*
X198077Y182738D01*
X197283D01*
Y184383D01*
X196525D01*
Y185670D01*
X196441Y186088D01*
X196205Y186442D01*
X194603Y188044D01*
X194248Y188280D01*
X193831Y188364D01*
X181047D01*
X172019Y197391D01*
X172465Y198058D01*
X172768Y197933D01*
X173688Y197812D01*
X174607Y197933D01*
X175464Y198288D01*
X176201Y198853D01*
X176765Y199589D01*
X177120Y200446D01*
X177242Y201366D01*
X177120Y202286D01*
X176765Y203143D01*
X176201Y203879D01*
X175464Y204444D01*
X174607Y204799D01*
X173688Y204920D01*
X172768Y204799D01*
X171911Y204444D01*
X171174Y203879D01*
X170663Y203212D01*
X170430Y203213D01*
X169875Y203428D01*
Y206270D01*
X169792Y206688D01*
X169555Y207042D01*
X166837Y209761D01*
X167120Y210446D01*
X167242Y211366D01*
X167120Y212286D01*
X166765Y213143D01*
X166201Y213879D01*
X165464Y214444D01*
X164607Y214799D01*
X163688Y214920D01*
D02*
G37*
G36*
X224187Y205287D02*
Y201866D01*
X227608D01*
X227538Y202398D01*
X227140Y203360D01*
X226507Y204185D01*
X225681Y204819D01*
X224719Y205217D01*
X224187Y205287D01*
D02*
G37*
G36*
X223187D02*
X222656Y205217D01*
X221694Y204819D01*
X220868Y204185D01*
X220235Y203360D01*
X219836Y202398D01*
X219766Y201866D01*
X223187D01*
Y205287D01*
D02*
G37*
G36*
X193687Y204920D02*
X192768Y204799D01*
X191911Y204444D01*
X191174Y203879D01*
X190610Y203143D01*
X190254Y202286D01*
X190133Y201366D01*
X190254Y200446D01*
X190610Y199589D01*
X191174Y198853D01*
X191911Y198288D01*
X192768Y197933D01*
X193687Y197812D01*
X194607Y197933D01*
X195465Y198288D01*
X196201Y198853D01*
X196765Y199589D01*
X197120Y200446D01*
X197241Y201366D01*
X197120Y202286D01*
X196765Y203143D01*
X196201Y203879D01*
X195465Y204444D01*
X194607Y204799D01*
X193687Y204920D01*
D02*
G37*
G36*
X183687D02*
X182768Y204799D01*
X181911Y204444D01*
X181174Y203879D01*
X180610Y203143D01*
X180254Y202286D01*
X180133Y201366D01*
X180254Y200446D01*
X180610Y199589D01*
X181174Y198853D01*
X181911Y198288D01*
X182768Y197933D01*
X183687Y197812D01*
X184607Y197933D01*
X185465Y198288D01*
X186201Y198853D01*
X186765Y199589D01*
X187120Y200446D01*
X187241Y201366D01*
X187120Y202286D01*
X186765Y203143D01*
X186201Y203879D01*
X185465Y204444D01*
X184607Y204799D01*
X183687Y204920D01*
D02*
G37*
G36*
X227608Y200866D02*
X224187D01*
Y197445D01*
X224719Y197515D01*
X225681Y197913D01*
X226507Y198547D01*
X227140Y199373D01*
X227538Y200334D01*
X227608Y200866D01*
D02*
G37*
G36*
X223187D02*
X219766D01*
X219836Y200334D01*
X220235Y199373D01*
X220868Y198547D01*
X221694Y197913D01*
X222656Y197515D01*
X223187Y197445D01*
Y200866D01*
D02*
G37*
G36*
X157608D02*
X154188D01*
Y197445D01*
X154719Y197515D01*
X155681Y197913D01*
X156507Y198547D01*
X157140Y199373D01*
X157538Y200334D01*
X157608Y200866D01*
D02*
G37*
G36*
X153188D02*
X149767D01*
X149837Y200334D01*
X150235Y199373D01*
X150868Y198547D01*
X151694Y197913D01*
X152656Y197515D01*
X153188Y197445D01*
Y200866D01*
D02*
G37*
G36*
X243335Y218126D02*
X241546Y217985D01*
X239802Y217566D01*
X238144Y216880D01*
X236615Y215942D01*
X235250Y214777D01*
X234085Y213413D01*
X233148Y211883D01*
X232461Y210226D01*
X232043Y208481D01*
X231902Y206693D01*
X232043Y204904D01*
X232461Y203160D01*
X233148Y201502D01*
X234085Y199973D01*
X235250Y198609D01*
X236615Y197443D01*
X238144Y196506D01*
X239802Y195820D01*
X241546Y195401D01*
X243335Y195260D01*
X245123Y195401D01*
X246868Y195820D01*
X248525Y196506D01*
X250055Y197443D01*
X251419Y198609D01*
X252584Y199973D01*
X253521Y201502D01*
X254208Y203160D01*
X254627Y204904D01*
X254767Y206693D01*
X254627Y208481D01*
X254208Y210226D01*
X253521Y211883D01*
X252584Y213413D01*
X251419Y214777D01*
X250055Y215942D01*
X248525Y216880D01*
X246868Y217566D01*
X245123Y217985D01*
X243335Y218126D01*
D02*
G37*
G36*
X243307Y189203D02*
X242316Y189006D01*
X241476Y188445D01*
X240915Y187605D01*
X240718Y186614D01*
X240915Y185623D01*
X241476Y184783D01*
X242316Y184222D01*
X243307Y184025D01*
X244298Y184222D01*
X245138Y184783D01*
X245699Y185623D01*
X245896Y186614D01*
X245699Y187605D01*
X245138Y188445D01*
X244298Y189006D01*
X243307Y189203D01*
D02*
G37*
G36*
X218004Y184442D02*
X217320Y184306D01*
X216741Y183918D01*
X216354Y183339D01*
X216218Y182655D01*
X216354Y181972D01*
X216741Y181392D01*
X217320Y181005D01*
X217789Y180912D01*
X219215Y179485D01*
X219215Y179485D01*
X219665Y179185D01*
X220195Y179080D01*
X220195Y179080D01*
X221121D01*
Y178516D01*
X225805D01*
Y182413D01*
X221121D01*
Y182413D01*
X220333Y182285D01*
X219747Y182870D01*
X219654Y183339D01*
X219267Y183918D01*
X218688Y184306D01*
X218004Y184442D01*
D02*
G37*
G36*
X197712Y175363D02*
X195933D01*
Y172698D01*
X197712D01*
Y175363D01*
D02*
G37*
G36*
X194933D02*
X193153D01*
Y172698D01*
X194933D01*
Y175363D01*
D02*
G37*
G36*
Y171698D02*
X193153D01*
Y169033D01*
X194933D01*
Y171698D01*
D02*
G37*
G36*
X198011D02*
X195933D01*
Y169033D01*
X196901D01*
X197019Y168440D01*
X197229Y168126D01*
X196808Y167339D01*
X196625Y167339D01*
X196625Y167339D01*
X196616Y167339D01*
X195166D01*
Y165067D01*
X197241D01*
X197241Y166730D01*
Y166753D01*
D01*
X197241Y166946D01*
X198013Y167377D01*
X198223Y167237D01*
X198574Y167167D01*
Y169291D01*
Y171416D01*
X198500Y171401D01*
X198011Y171698D01*
D02*
G37*
G36*
X194166Y167339D02*
X192092D01*
Y165067D01*
X194166D01*
Y167339D01*
D02*
G37*
G36*
X197241Y164067D02*
X195166D01*
Y161795D01*
X197241D01*
Y164067D01*
D02*
G37*
G36*
X194166D02*
X192092D01*
Y161795D01*
X194166D01*
Y164067D01*
D02*
G37*
G36*
X214998Y34838D02*
X214427Y34838D01*
X211849Y34838D01*
X211278Y34838D01*
X208699Y34838D01*
X208128Y34838D01*
X205550Y34838D01*
X204979Y34838D01*
X202400Y34838D01*
X201829Y34838D01*
X199467D01*
Y31334D01*
X202400Y31334D01*
X202971Y31334D01*
X205550Y31334D01*
X206120Y31334D01*
X208699Y31334D01*
X209270Y31334D01*
X211849Y31334D01*
X212420Y31334D01*
X214998Y31334D01*
X215569Y31334D01*
X217932D01*
Y34838D01*
X214998Y34838D01*
D02*
G37*
G36*
X232784Y27715D02*
Y26091D01*
X234408D01*
X234338Y26442D01*
X233856Y27163D01*
X233135Y27645D01*
X232784Y27715D01*
D02*
G37*
G36*
X231784D02*
X231432Y27645D01*
X230711Y27163D01*
X230229Y26442D01*
X230159Y26091D01*
X231784D01*
Y27715D01*
D02*
G37*
G36*
X234408Y25091D02*
X232784D01*
Y23466D01*
X233135Y23536D01*
X233856Y24018D01*
X234338Y24739D01*
X234408Y25091D01*
D02*
G37*
G36*
X231784D02*
X230159D01*
X230229Y24739D01*
X230711Y24018D01*
X231432Y23536D01*
X231784Y23466D01*
Y25091D01*
D02*
G37*
G36*
X199331Y24187D02*
Y22563D01*
X200955D01*
X200885Y22914D01*
X200403Y23635D01*
X199682Y24117D01*
X199331Y24187D01*
D02*
G37*
G36*
X198331D02*
X197980Y24117D01*
X197258Y23635D01*
X196776Y22914D01*
X196706Y22563D01*
X198331D01*
Y24187D01*
D02*
G37*
G36*
X228758Y24996D02*
X225254D01*
Y22885D01*
X224825Y22276D01*
X224825Y21670D01*
Y20988D01*
X227006D01*
X229187D01*
Y22276D01*
X228758Y22885D01*
Y24996D01*
D02*
G37*
G36*
X200955Y21563D02*
X199331D01*
Y19938D01*
X199682Y20008D01*
X200403Y20490D01*
X200885Y21212D01*
X200955Y21563D01*
D02*
G37*
G36*
X198331D02*
X196706D01*
X196776Y21212D01*
X197258Y20490D01*
X197980Y20008D01*
X198331Y19938D01*
Y21563D01*
D02*
G37*
G36*
X221276Y82819D02*
X219004D01*
Y80744D01*
X221276D01*
Y82819D01*
D02*
G37*
G36*
X218004D02*
X215732D01*
Y80744D01*
X218004D01*
Y82819D01*
D02*
G37*
G36*
X213702Y81980D02*
X210446D01*
Y79118D01*
X213702D01*
Y81980D01*
D02*
G37*
G36*
X209446D02*
X206190D01*
Y79118D01*
X209446D01*
Y81980D01*
D02*
G37*
G36*
X218648Y76984D02*
Y74909D01*
X220920D01*
Y76984D01*
X218648D01*
D02*
G37*
G36*
X211520D02*
X209248D01*
Y74909D01*
X211520D01*
Y76984D01*
D02*
G37*
G36*
X207869D02*
X205598D01*
Y74909D01*
X207869D01*
Y76984D01*
D02*
G37*
G36*
X204598D02*
X202326D01*
Y74909D01*
X204598D01*
Y76984D01*
D02*
G37*
G36*
X188350Y78380D02*
X184101D01*
X184171Y78029D01*
X184343Y77772D01*
X183923Y76984D01*
X183454D01*
Y74909D01*
X188997D01*
Y76984D01*
X188529D01*
X188108Y77772D01*
X188280Y78029D01*
X188350Y78380D01*
D02*
G37*
G36*
X220920Y73909D02*
X218648D01*
Y71835D01*
X220920D01*
Y73909D01*
D02*
G37*
G36*
X207869D02*
X205598D01*
Y71835D01*
X207869D01*
Y73909D01*
D02*
G37*
G36*
X204598D02*
X202326D01*
Y71835D01*
X204598D01*
Y73909D01*
D02*
G37*
G36*
X188997D02*
X186726D01*
Y71835D01*
X188997D01*
Y73909D01*
D02*
G37*
G36*
X185726D02*
X183454D01*
Y71835D01*
X185726D01*
Y73909D01*
D02*
G37*
G36*
X211520D02*
X209248D01*
Y71835D01*
X211520D01*
Y73909D01*
D02*
G37*
G36*
X215376Y76984D02*
X214791D01*
X214589Y76984D01*
X212520D01*
Y74409D01*
Y71835D01*
X214589D01*
X214791Y71835D01*
X215376D01*
X215579Y71835D01*
X217648D01*
Y74409D01*
Y76984D01*
X215579D01*
X215376Y76984D01*
D02*
G37*
G36*
X185311Y62754D02*
X184960Y62685D01*
X184239Y62202D01*
X183757Y61481D01*
X183687Y61130D01*
X185311D01*
Y62754D01*
D02*
G37*
G36*
Y60130D02*
X183687D01*
X183757Y59779D01*
X184239Y59057D01*
X184960Y58575D01*
X185311Y58506D01*
Y60130D01*
D02*
G37*
G36*
X241232Y71472D02*
X238961D01*
Y69398D01*
X241232D01*
Y71472D01*
D02*
G37*
G36*
Y68398D02*
X238961D01*
Y66323D01*
X241232D01*
Y68398D01*
D02*
G37*
G36*
X235923Y63150D02*
X234299D01*
Y61525D01*
X234650Y61595D01*
X235371Y62077D01*
X235853Y62799D01*
X235923Y63150D01*
D02*
G37*
G36*
X233299D02*
X231674D01*
X231744Y62799D01*
X232226Y62077D01*
X232948Y61595D01*
X233299Y61525D01*
Y63150D01*
D02*
G37*
G36*
X228097Y61252D02*
Y59571D01*
X229384D01*
Y61252D01*
X228097D01*
D02*
G37*
G36*
X229384Y58571D02*
X228097D01*
Y56890D01*
X229384D01*
Y58571D01*
D02*
G37*
G36*
X161130Y24863D02*
Y23238D01*
X162754D01*
X162685Y23589D01*
X162202Y24311D01*
X161481Y24793D01*
X161130Y24863D01*
D02*
G37*
G36*
X160130D02*
X159779Y24793D01*
X159057Y24311D01*
X158575Y23589D01*
X158505Y23238D01*
X160130D01*
Y24863D01*
D02*
G37*
G36*
X162754Y22238D02*
X161130D01*
Y20614D01*
X161481Y20684D01*
X162202Y21166D01*
X162331Y21359D01*
X162685Y21887D01*
X162754Y22238D01*
D02*
G37*
G36*
X160130D02*
X158505D01*
X158575Y21887D01*
X159057Y21166D01*
X159779Y20684D01*
X160130Y20614D01*
Y22238D01*
D02*
G37*
G36*
X85807Y18123D02*
X81122D01*
Y14225D01*
X82481D01*
Y13185D01*
X81122D01*
Y8894D01*
X85807D01*
Y13185D01*
X84448D01*
Y14225D01*
X85807D01*
Y18123D01*
D02*
G37*
G36*
X74783Y18287D02*
X70098D01*
Y14390D01*
X71457D01*
Y13169D01*
X70098D01*
Y8878D01*
X74783D01*
Y13169D01*
X73424D01*
Y14390D01*
X74783D01*
Y18287D01*
D02*
G37*
G36*
X64547D02*
X59862D01*
Y14390D01*
X61221D01*
Y13169D01*
X59862D01*
Y8878D01*
X64547D01*
Y13169D01*
X63188D01*
Y14390D01*
X64547D01*
Y18287D01*
D02*
G37*
G36*
X41199Y17004D02*
X39575D01*
Y15380D01*
X39926Y15450D01*
X40647Y15932D01*
X41129Y16653D01*
X41199Y17004D01*
D02*
G37*
G36*
X38575D02*
X36950D01*
X37020Y16653D01*
X37502Y15932D01*
X38224Y15450D01*
X38575Y15380D01*
Y17004D01*
D02*
G37*
G36*
X100333Y16504D02*
X98709D01*
Y14880D01*
X99060Y14950D01*
X99781Y15432D01*
X100263Y16153D01*
X100333Y16504D01*
D02*
G37*
G36*
X97709D02*
X96084D01*
X96154Y16153D01*
X96636Y15432D01*
X97358Y14950D01*
X97709Y14880D01*
Y16504D01*
D02*
G37*
G36*
X108524Y8642D02*
X104823D01*
Y3366D01*
X108524D01*
Y8642D01*
D02*
G37*
G36*
X100059D02*
X96358D01*
Y3366D01*
X100059D01*
Y8642D01*
D02*
G37*
G36*
X49390D02*
X45689D01*
Y3366D01*
X49390D01*
Y8642D01*
D02*
G37*
G36*
X40925D02*
X37224D01*
Y3366D01*
X40925D01*
Y8642D01*
D02*
G37*
%LPD*%
D11*
X180014Y185039D02*
X186614D01*
X187952Y183701D01*
Y181647D02*
Y183701D01*
X180595Y187272D02*
X193831D01*
X195433Y185670D01*
Y181647D02*
Y185670D01*
X199492Y180232D02*
X203225D01*
X198077Y181647D02*
X199492Y180232D01*
X195433Y181647D02*
X198077D01*
X180547Y180232D02*
X184011D01*
X185426Y181647D01*
X187952D01*
X163688Y201366D02*
X180014Y185039D01*
X168783Y199083D02*
X180595Y187272D01*
X168783Y199083D02*
Y206270D01*
X163688Y211366D02*
X168783Y206270D01*
D14*
X227006Y29937D02*
X237194D01*
X238533Y31276D01*
X252327D01*
X240995Y36226D02*
X252327D01*
X236280Y31512D02*
X240995Y36226D01*
X223463Y31512D02*
X236280D01*
X235953Y33086D02*
X244044Y41177D01*
X252325D01*
X235411Y34624D02*
X246915Y46128D01*
X252325D01*
X234957Y36236D02*
X249799Y51078D01*
X252325D01*
X223500Y34624D02*
X235411D01*
X227006Y36236D02*
X234957D01*
X232712Y37811D02*
X238316Y43415D01*
X223463Y37811D02*
X232712D01*
X240358Y48819D02*
X244094D01*
X230925Y39386D02*
X240358Y48819D01*
X227006Y39386D02*
X230925D01*
X227006Y33086D02*
X235953D01*
X223463Y34661D02*
X223500Y34624D01*
X232248Y44110D02*
X235415Y47278D01*
X223463Y44110D02*
X232248D01*
X230246Y45685D02*
X236530Y51968D01*
X227006Y45685D02*
X230246D01*
X215748Y52756D02*
X229134D01*
X214998Y53505D02*
Y59071D01*
Y53505D02*
X215748Y52756D01*
X72441Y11024D02*
Y11520D01*
D16*
X209946Y89173D02*
X214054D01*
X214397Y88831D01*
X218504D01*
X204528Y94739D02*
Y97382D01*
X209946Y89173D02*
Y89320D01*
X204528Y94739D02*
X209946Y89320D01*
X193157Y86221D02*
X196898Y82480D01*
X201285D01*
X201482D01*
X205315Y86313D01*
Y92131D01*
X202559Y94887D02*
X205315Y92131D01*
X202559Y94887D02*
Y97382D01*
X162303Y174560D02*
X162303Y174560D01*
X158957Y174560D02*
X162303D01*
X162283Y178740D02*
X162283Y178740D01*
X158936Y178740D02*
X162283D01*
X72441Y22244D02*
X75243D01*
X77000Y24001D01*
X227140Y65965D02*
X231784D01*
X221298Y59071D02*
Y60122D01*
X227140Y65965D01*
X231784D02*
X234732Y68913D01*
Y71653D01*
X154607Y178740D02*
X158936D01*
X154607Y174560D02*
X158957D01*
X162303Y174560D02*
X162303Y174560D01*
X166765D01*
X162283Y178740D02*
X162283Y178740D01*
X166765D01*
X172441Y144095D02*
X216876D01*
X172992Y145702D02*
X217683D01*
X174112Y147285D02*
X218448D01*
X127696Y193701D02*
X174112Y147285D01*
X174803Y148819D02*
X219147D01*
X128485Y195137D02*
X174803Y148819D01*
X175364Y150394D02*
X219917D01*
X129278Y196479D02*
X175364Y150394D01*
X216876Y144095D02*
X221147Y139823D01*
X217683Y145702D02*
X222835Y140551D01*
X218448Y147285D02*
X224410Y141324D01*
X219147Y148819D02*
X225984Y141982D01*
X219917Y150394D02*
X227559Y142751D01*
X169122Y147413D02*
X172441Y144095D01*
X165151Y153543D02*
X172992Y145702D01*
X161434Y153543D02*
Y157757D01*
X127065Y192126D02*
X161434Y157757D01*
X58417Y192126D02*
X127065D01*
X126369Y190551D02*
X158482Y158439D01*
Y148819D02*
Y158439D01*
Y148819D02*
X159887Y147413D01*
X161434D01*
X169122D01*
X161434Y153543D02*
X165151D01*
X186553Y124598D02*
Y130269D01*
Y124598D02*
X187528Y123622D01*
X195866D01*
X196653Y120610D02*
Y122835D01*
X195866Y123622D02*
X196653Y122835D01*
X176925Y99128D02*
X184854D01*
X189801Y104075D01*
X193898D01*
X174457Y96659D02*
X176925Y99128D01*
X174457Y95084D02*
Y96659D01*
X183904Y112736D02*
X188043D01*
X190799Y109980D01*
X193898D01*
X198577Y120655D02*
Y130269D01*
Y120655D02*
X198622Y120610D01*
X231240Y79527D02*
X237440Y85728D01*
X211910Y59071D02*
Y60120D01*
X231194Y83858D02*
X236153Y88817D01*
X245302Y64491D02*
Y108232D01*
X232283Y121250D02*
X245302Y108232D01*
X232283Y121250D02*
Y144986D01*
X237440Y85728D02*
Y113696D01*
X230724Y120412D02*
X237440Y113696D01*
X230724Y120412D02*
Y144221D01*
X234865Y91101D02*
Y111705D01*
X227559Y119011D02*
X234865Y111705D01*
X227559Y119011D02*
Y142751D01*
X229074Y119771D02*
X236153Y112692D01*
X229074Y119771D02*
Y143461D01*
X236153Y88817D02*
Y112692D01*
X233578Y93878D02*
Y110654D01*
X225984Y118247D02*
X233578Y110654D01*
X225984Y118247D02*
Y141982D01*
X231432Y95669D02*
Y110482D01*
X224410Y117505D02*
X231432Y110482D01*
X224410Y117505D02*
Y141324D01*
X213687Y161258D02*
X230724Y144221D01*
X229134Y148135D02*
X232283Y144986D01*
X221147Y115533D02*
Y139823D01*
X222835Y114091D02*
Y140551D01*
X208868Y163667D02*
X229074Y143461D01*
X208868Y163667D02*
Y206186D01*
X213687Y161258D02*
Y201366D01*
X229134Y148135D02*
Y175508D01*
X91353Y193701D02*
X127696D01*
X229646Y48835D02*
X245302Y64491D01*
X231496Y87731D02*
X234865Y91101D01*
X231432Y91732D02*
X233578Y93878D01*
X231194Y83858D02*
X231496D01*
X163097Y84842D02*
X163779Y85525D01*
Y89784D01*
X161024Y84842D02*
X163097D01*
X161024Y90748D02*
Y93221D01*
X185114Y118681D02*
X191846Y111949D01*
X173559Y114630D02*
X177610Y118681D01*
X185114D01*
X186014Y102362D02*
X191663Y108012D01*
X176429Y102362D02*
X186014D01*
X173461Y105331D02*
X176429Y102362D01*
X225197Y111843D02*
X225303Y111949D01*
X225197Y107909D02*
Y111843D01*
X204303Y127886D02*
Y130072D01*
X200591Y124174D02*
X204303Y127886D01*
X200591Y120610D02*
Y124174D01*
X189134Y120610D02*
X191889Y117854D01*
X193898D01*
Y113917D02*
X200591D01*
X205512Y108996D01*
X199606Y103091D02*
X202559Y106043D01*
X205512Y108996D01*
X193898Y106043D02*
X202559D01*
X196653Y100138D02*
X199606Y103091D01*
X196653Y97382D02*
Y100138D01*
X208465Y106043D02*
X210433Y104075D01*
X205512Y108996D02*
X208465Y106043D01*
X210433Y97382D02*
Y104075D01*
X208465Y97382D02*
Y106043D01*
X208704Y93307D02*
X216535D01*
X206496Y95515D02*
X208704Y93307D01*
X206496Y95515D02*
Y97382D01*
X193157Y91732D02*
Y93028D01*
X196653Y96524D01*
Y97382D01*
X163779Y89784D02*
X164547Y90551D01*
X166765D01*
Y85039D02*
X183976D01*
X185711Y95084D02*
X185907Y95281D01*
X180182Y95084D02*
X185711D01*
X163386Y95583D02*
Y97834D01*
X161024Y93221D02*
X163386Y95583D01*
X183976Y85039D02*
X185907Y86971D01*
Y89375D01*
X189802Y91339D02*
Y98223D01*
X191716Y100138D01*
X185907Y89375D02*
X187838D01*
X189802Y91339D01*
X191716Y100138D02*
X193898D01*
X185907Y95281D02*
Y98112D01*
X189902Y102106D01*
X193898D01*
X155499Y117304D02*
X158173Y114630D01*
X162799D01*
X151242Y119749D02*
X154308Y122816D01*
X155499D01*
X151135Y100638D02*
X154155Y97619D01*
X155499D01*
Y103130D02*
X157699Y105331D01*
X162799D01*
X191846Y111949D02*
X193898D01*
X169886Y114630D02*
X173559D01*
X191663Y108012D02*
X193898D01*
X169886Y105331D02*
X173461D01*
X221298Y102362D02*
X225161D01*
X219585Y104075D02*
X221298Y102362D01*
X217126Y104075D02*
X219585D01*
X217126Y111949D02*
X220693D01*
X222835Y114091D01*
X217126Y113917D02*
X219531D01*
X221147Y115533D01*
X163386Y97834D02*
Y100638D01*
X162799Y101225D02*
X163386Y100638D01*
X162799Y101225D02*
Y105331D01*
X163386Y119291D02*
Y122127D01*
X162799Y118704D02*
X163386Y119291D01*
X162799Y114630D02*
Y118704D01*
X229134Y179446D02*
X234546D01*
X234628Y179528D01*
X229134Y175508D02*
Y179446D01*
X193935Y44110D02*
X218951D01*
X227221Y175508D02*
X229134D01*
X226272Y174559D02*
X227221Y175508D01*
X223463Y174559D02*
X226272D01*
X108574Y196479D02*
X129278D01*
X103688Y201366D02*
X108574Y196479D01*
X97626Y195137D02*
X128485D01*
X93687Y199075D02*
X97626Y195137D01*
X48968Y190551D02*
X126369D01*
X43687Y195832D02*
X48968Y190551D01*
X53688Y196856D02*
X58417Y192126D01*
X83688Y201366D02*
X91353Y193701D01*
X143740Y117174D02*
X146316Y119749D01*
X143683Y103394D02*
X146439Y100638D01*
X223676Y48835D02*
X229646D01*
X218951Y44110D02*
X223676Y48835D01*
X211910Y60120D02*
X214961Y63170D01*
X211849Y59071D02*
X211910D01*
X208699Y61455D02*
X211024Y63779D01*
X208699Y59071D02*
Y61455D01*
X203688Y211366D02*
X208868Y206186D01*
X106673Y18224D02*
X106709Y18189D01*
X106673Y18224D02*
Y22343D01*
X105315Y26306D02*
Y28362D01*
Y26306D02*
X106673Y24948D01*
Y22343D02*
Y24948D01*
X83465Y11039D02*
X83465Y11039D01*
Y16174D01*
X72441Y11520D02*
X72441Y11520D01*
Y16339D01*
X62205Y11024D02*
X62205Y11024D01*
Y16339D01*
X46260Y25984D02*
Y28362D01*
Y25984D02*
X47539Y24705D01*
Y22343D02*
Y24705D01*
X52051Y22343D02*
X52142Y22433D01*
X47539Y22343D02*
X52051D01*
X88939Y23134D02*
X89126D01*
X87913Y22109D02*
X88939Y23134D01*
X83494Y22109D02*
X87913D01*
X83465Y22080D02*
X83494Y22109D01*
X62205Y22244D02*
Y26772D01*
X234732Y71653D02*
X237488Y74410D01*
X241732D01*
X222133Y68898D02*
X224889Y71653D01*
X218148Y68898D02*
X222133D01*
X224889Y67042D02*
Y71653D01*
X218148Y60301D02*
X224889Y67042D01*
X218148Y59071D02*
Y60301D01*
X149392Y100638D02*
X151135D01*
X149449Y119749D02*
X151242D01*
X198831Y18516D02*
Y22063D01*
X196472Y16157D02*
X198831Y18516D01*
X190392Y16157D02*
X196472D01*
X184904Y21395D02*
Y22835D01*
Y21395D02*
X185811Y20488D01*
X190392D01*
X187610Y24409D02*
Y26772D01*
Y24409D02*
X188382Y23638D01*
X190392D01*
X210175Y130072D02*
X210175Y130072D01*
X204303Y130072D02*
X210175D01*
X146316Y119749D02*
X149449D01*
X146439Y100638D02*
X149392D01*
X93687Y199075D02*
Y201366D01*
X53688Y196856D02*
Y201366D01*
X43687Y195832D02*
Y201366D01*
D20*
X209946Y82480D02*
D03*
X201285D02*
D03*
X209946Y89173D02*
D03*
X201285D02*
D03*
D21*
X227006Y16157D02*
D03*
X223463Y44110D02*
D03*
X227006Y33086D02*
D03*
Y36236D02*
D03*
X190392Y16157D02*
D03*
X193935Y18913D02*
D03*
Y25212D02*
D03*
X190392Y23638D02*
D03*
Y20488D02*
D03*
X223463Y37811D02*
D03*
Y40960D02*
D03*
X190392Y29937D02*
D03*
X193935Y31512D02*
D03*
Y37811D02*
D03*
X190392Y36236D02*
D03*
Y42535D02*
D03*
Y51984D02*
D03*
X193935Y50409D02*
D03*
X223463Y34661D02*
D03*
Y31512D02*
D03*
X190392Y45685D02*
D03*
Y55134D02*
D03*
Y33086D02*
D03*
X227006Y45685D02*
D03*
Y42535D02*
D03*
X190392Y48835D02*
D03*
X193935Y47260D02*
D03*
Y40960D02*
D03*
Y34661D02*
D03*
Y44110D02*
D03*
X227006Y29937D02*
D03*
X193935Y28362D02*
D03*
Y22063D02*
D03*
X227006Y39386D02*
D03*
Y23638D02*
D03*
Y20488D02*
D03*
D22*
X196101Y59071D02*
D03*
X200825Y33086D02*
D03*
X203975D02*
D03*
X210274D02*
D03*
X189802Y59071D02*
D03*
X224447D02*
D03*
X192951D02*
D03*
X221298D02*
D03*
X208699D02*
D03*
X211849D02*
D03*
X214998D02*
D03*
X205550D02*
D03*
X202400D02*
D03*
X199250D02*
D03*
X218148D02*
D03*
X213424Y55527D02*
D03*
X207124D02*
D03*
X200825D02*
D03*
X203975D02*
D03*
X210274D02*
D03*
X216573D02*
D03*
X227597Y59071D02*
D03*
X213424Y33086D02*
D03*
X216573D02*
D03*
X207124D02*
D03*
D23*
X158936Y178740D02*
D03*
X162283Y178740D02*
D03*
X158957Y174560D02*
D03*
X162303Y174560D02*
D03*
D24*
X229134Y175705D02*
D03*
X229134Y179249D02*
D03*
D25*
X195433Y181647D02*
D03*
X191693D02*
D03*
X187952D02*
D03*
Y172198D02*
D03*
X195433D02*
D03*
D26*
X155529Y153543D02*
D03*
X161434D02*
D03*
X155529Y147413D02*
D03*
X161434D02*
D03*
X99409Y28362D02*
D03*
X105315D02*
D03*
X137778Y103394D02*
D03*
X143683D02*
D03*
X137834Y117174D02*
D03*
X143740D02*
D03*
X40354Y28362D02*
D03*
X46260D02*
D03*
D27*
X47539Y6004D02*
D03*
X39075Y22343D02*
D03*
X47539D02*
D03*
X39075Y6004D02*
D03*
X106673D02*
D03*
X98209Y22343D02*
D03*
X106673D02*
D03*
X98209Y6004D02*
D03*
D28*
X205512Y108996D02*
D03*
D29*
X196653Y120610D02*
D03*
X198622D02*
D03*
X200591D02*
D03*
X202559D02*
D03*
X204528D02*
D03*
X206496D02*
D03*
X208465D02*
D03*
X210433D02*
D03*
X212402D02*
D03*
X214370D02*
D03*
Y97382D02*
D03*
X212402D02*
D03*
X210433D02*
D03*
X208465D02*
D03*
X206496D02*
D03*
X204528D02*
D03*
X202559D02*
D03*
X200591D02*
D03*
X198622D02*
D03*
X196653D02*
D03*
D30*
X217126Y117854D02*
D03*
Y115886D02*
D03*
Y113917D02*
D03*
Y111949D02*
D03*
Y109980D02*
D03*
Y108012D02*
D03*
Y106043D02*
D03*
Y104075D02*
D03*
Y102106D02*
D03*
Y100138D02*
D03*
X193898D02*
D03*
Y102106D02*
D03*
Y104075D02*
D03*
Y106043D02*
D03*
Y108012D02*
D03*
Y109980D02*
D03*
Y111949D02*
D03*
Y113917D02*
D03*
Y115886D02*
D03*
Y117854D02*
D03*
D31*
X234732Y71653D02*
D03*
X224889D02*
D03*
D32*
X223463Y174559D02*
D03*
Y180465D02*
D03*
X203225Y174327D02*
D03*
Y180232D02*
D03*
X180547Y174327D02*
D03*
Y180232D02*
D03*
X204303Y135977D02*
D03*
Y130072D02*
D03*
X210175Y130072D02*
D03*
Y135977D02*
D03*
X185907Y95281D02*
D03*
Y89375D02*
D03*
X161024Y90748D02*
D03*
Y84842D02*
D03*
X198831Y74606D02*
D03*
Y68701D02*
D03*
X62205Y16339D02*
D03*
Y22244D02*
D03*
X83465Y16174D02*
D03*
Y22080D02*
D03*
X72441Y16339D02*
D03*
Y22244D02*
D03*
D33*
X183904Y107224D02*
D03*
Y112736D02*
D03*
X178176Y107224D02*
D03*
Y112736D02*
D03*
X83465Y5527D02*
D03*
Y11039D02*
D03*
X72441Y5512D02*
D03*
Y11024D02*
D03*
X62205Y5512D02*
D03*
Y11024D02*
D03*
X225197Y107909D02*
D03*
Y102398D02*
D03*
X186553Y135781D02*
D03*
Y130269D02*
D03*
X192852Y135781D02*
D03*
Y130269D02*
D03*
X198577Y135781D02*
D03*
Y130269D02*
D03*
X149449Y114238D02*
D03*
Y119749D02*
D03*
X149392Y100638D02*
D03*
Y106150D02*
D03*
X155499Y122816D02*
D03*
Y117304D02*
D03*
X155499Y97619D02*
D03*
Y103130D02*
D03*
X180182Y89572D02*
D03*
Y95084D02*
D03*
X174457Y89572D02*
D03*
Y95084D02*
D03*
X166765Y90551D02*
D03*
Y85039D02*
D03*
X241732Y74410D02*
D03*
Y68898D02*
D03*
X186226Y68898D02*
D03*
Y74409D02*
D03*
X192480D02*
D03*
Y68898D02*
D03*
X205098D02*
D03*
Y74409D02*
D03*
X218148Y68898D02*
D03*
Y74409D02*
D03*
X212020Y68898D02*
D03*
Y74409D02*
D03*
X218504Y83319D02*
D03*
Y88831D02*
D03*
X193157Y91732D02*
D03*
Y86221D02*
D03*
D34*
X189155Y164567D02*
D03*
X194666D02*
D03*
X168898Y122127D02*
D03*
X163386D02*
D03*
X163386Y97834D02*
D03*
X168898D02*
D03*
D35*
X169886Y114630D02*
D03*
X162799D02*
D03*
X169886Y105331D02*
D03*
X162799D02*
D03*
D56*
X195645Y91732D02*
X198204Y89173D01*
X201285D01*
X43307Y19019D02*
Y23622D01*
Y19019D02*
X56814Y5512D01*
X62205D01*
X40354Y26575D02*
X43307Y23622D01*
X40354Y26575D02*
Y28362D01*
X225363Y102232D02*
X225529Y102398D01*
X72441Y5512D02*
X91135D01*
X138583Y203937D02*
X140950Y206305D01*
X158268D01*
X218004Y182655D02*
X220195Y180465D01*
X223463D01*
X158028Y130709D02*
X181391D01*
X155529Y133208D02*
X158028Y130709D01*
X181391D02*
X186113D01*
X186553Y130269D01*
X180547Y167762D02*
Y174327D01*
Y167762D02*
X183742Y164567D01*
X189155D01*
X164168Y194336D02*
X174719Y183785D01*
Y175508D02*
Y183785D01*
X141148Y194336D02*
X164168D01*
X174719Y175508D02*
X175901Y174327D01*
X180547D01*
X203225Y160527D02*
Y174327D01*
X190551Y159055D02*
X201753D01*
X203225Y160527D01*
X198080Y169033D02*
X198339Y169291D01*
X195933Y169033D02*
X198080D01*
X195433Y169533D02*
X195933Y169033D01*
X195433Y169533D02*
Y172198D01*
X198339Y169291D02*
X199074D01*
X189155Y160452D02*
X190551Y159055D01*
X189155Y160452D02*
Y164567D01*
Y167160D01*
X187952Y168362D02*
X189155Y167160D01*
X187952Y168362D02*
Y172198D01*
X155529Y133208D02*
Y147413D01*
Y153543D01*
X33687Y211366D02*
X43687D01*
X192852Y126561D02*
Y130269D01*
X179440Y116142D02*
X180859D01*
X178176Y114878D02*
X179440Y116142D01*
X178176Y112736D02*
Y114878D01*
Y112736D02*
X183904D01*
X204303Y135977D02*
Y139722D01*
X192852Y130269D02*
X198577D01*
X172441Y82284D02*
X189724D01*
X167532Y77374D02*
X172441Y82284D01*
X167532Y23388D02*
Y77374D01*
X189724Y82284D02*
X192480Y79528D01*
X138583Y196901D02*
Y203937D01*
X136249Y206270D02*
X138583Y203937D01*
X118591Y206270D02*
X136249D01*
X225529Y102398D02*
X229068D01*
X168898Y126561D02*
X169108Y126772D01*
X168898Y122127D02*
Y126561D01*
X215006Y135977D02*
X215156Y135827D01*
X210175Y135977D02*
X215006D01*
X187620Y108268D02*
X188189D01*
X186577Y107224D02*
X187620Y108268D01*
X183904Y107224D02*
X186577D01*
X178176D02*
X183904D01*
X186553Y135781D02*
X192852D01*
X233567Y61038D02*
Y63650D01*
X216535Y93307D02*
X219376D01*
X225197Y99128D01*
Y102398D01*
X225363Y102232D01*
X225161Y101132D02*
Y102362D01*
X193157Y91732D02*
X195645D01*
X168898Y97834D02*
X170277Y99213D01*
X172618D01*
X171088Y90724D02*
X172239Y89572D01*
X174457D01*
X171088Y90724D02*
Y94488D01*
X168898Y96678D02*
X171088Y94488D01*
X168898Y96678D02*
Y97834D01*
X174457Y89572D02*
X180182D01*
X229836Y20488D02*
X232283Y22936D01*
X227006Y20488D02*
X229836D01*
X232283Y22936D02*
Y25591D01*
X134646Y117174D02*
X137834D01*
X132039Y114567D02*
X134646Y117174D01*
X130551Y114567D02*
X132039D01*
X134646Y103394D02*
X137778D01*
X132134Y105905D02*
X134646Y103394D01*
X130551Y105905D02*
X132134D01*
X149204Y110236D02*
X149449Y110481D01*
X130551Y110236D02*
X149204D01*
X138583Y196901D02*
X141148Y194336D01*
X149449Y106207D02*
Y110481D01*
Y114238D01*
X149392Y106150D02*
X149449Y106207D01*
X159498Y15354D02*
X167532Y23388D01*
X103937Y15354D02*
X159498D01*
X98209Y17004D02*
Y22343D01*
X39075Y17504D02*
X39075Y17504D01*
X39075Y17504D02*
Y22343D01*
X231600Y59071D02*
X233567Y61038D01*
X227597Y59071D02*
X231600D01*
X233567Y63650D02*
X233799D01*
X102362Y16929D02*
X103937Y15354D01*
X102362Y16929D02*
Y25409D01*
X99409Y28362D02*
X102362Y25409D01*
X93687Y8065D02*
Y26120D01*
X91135Y5512D02*
X93687Y8065D01*
X95929Y28362D02*
X99409D01*
X93687Y26120D02*
X95929Y28362D01*
X62205Y5512D02*
X72441D01*
X185811Y60630D02*
X187370Y59071D01*
X189802D01*
X113688Y201366D02*
X118591Y206270D01*
X192480Y74409D02*
Y79528D01*
X198634Y74409D02*
X198831Y74606D01*
X192480Y74409D02*
X198634D01*
X186226D02*
Y78880D01*
X212020Y74409D02*
X218148D01*
X205098D02*
X212020D01*
X207087Y64567D02*
X211417Y68898D01*
X212020D01*
X198831Y68701D02*
X199028Y68898D01*
X205098D01*
X199250Y59071D02*
Y63650D01*
X198831Y64069D02*
X199250Y63650D01*
X198831Y64069D02*
Y68701D01*
X196101Y59071D02*
Y62345D01*
X192480Y65966D02*
X196101Y62345D01*
X192480Y65966D02*
Y68898D01*
X186226Y68061D02*
Y68898D01*
X202400Y61739D02*
X205228Y64567D01*
X207087D01*
X38814Y206305D02*
X80796D01*
X38720Y206399D02*
X38814Y206305D01*
X33687Y201366D02*
X38720Y206399D01*
X202400Y59071D02*
Y61739D01*
X181623Y135781D02*
X186553D01*
X192852D02*
X198577D01*
X227006Y16157D02*
Y20488D01*
X186226Y68061D02*
X192951Y61335D01*
Y59071D02*
Y61335D01*
D62*
X124252Y105905D02*
G03*
X121102Y102756I0J-3150D01*
G01*
Y117717D02*
G03*
X124252Y114567I3150J0D01*
G01*
X122283Y110236D02*
X130551D01*
X111653Y104331D02*
Y116142D01*
Y168701D01*
X34094D02*
X111653D01*
Y51772D02*
Y104331D01*
X34094Y51772D02*
X111653D01*
X24645Y127953D02*
Y178150D01*
X117952Y127953D02*
Y175000D01*
X27795Y127953D02*
Y175000D01*
X30944Y127953D02*
Y171850D01*
X114803Y127953D02*
Y171653D01*
X34094Y127953D02*
Y168701D01*
X121102Y42323D02*
Y102756D01*
X117952Y45472D02*
Y116142D01*
X114803Y48425D02*
Y116142D01*
X34094Y51772D02*
Y116142D01*
X24645Y42323D02*
Y116142D01*
X27795Y45472D02*
Y116142D01*
X30944Y48622D02*
Y116142D01*
X27795Y175000D02*
X117952D01*
X30944Y171850D02*
X114803Y171653D01*
X30944Y48622D02*
X114803Y48425D01*
X27795Y45472D02*
X117952D01*
X24645Y42323D02*
X121102D01*
X30944Y127953D02*
X34094Y116142D01*
X114803Y127953D02*
X117952Y115945D01*
X24645Y178150D02*
X121102D01*
Y117717D02*
Y178150D01*
X124252Y105905D02*
X130551D01*
X124252Y114567D02*
X130551D01*
D63*
X252325Y51078D02*
D03*
Y46128D02*
D03*
Y41177D02*
D03*
X252218Y36226D02*
D03*
Y31276D02*
D03*
D64*
X130551Y114567D02*
D03*
Y105905D02*
D03*
Y110236D02*
D03*
D65*
X14961Y186614D02*
D03*
X243307D02*
D03*
X14961Y33071D02*
D03*
D66*
X24645Y127953D02*
X27795Y116142D01*
D67*
X199606Y103091D02*
D03*
X205512D02*
D03*
X211417D02*
D03*
Y108996D02*
D03*
Y114902D02*
D03*
X205512D02*
D03*
X199606D02*
D03*
X205512Y108996D02*
D03*
X199606D02*
D03*
D68*
X243335Y13780D02*
D03*
X14988D02*
D03*
Y206693D02*
D03*
X243335D02*
D03*
D69*
X223688Y211366D02*
D03*
Y201366D02*
D03*
X213687Y211366D02*
D03*
Y201366D02*
D03*
X203688Y211366D02*
D03*
Y201366D02*
D03*
X193687Y211366D02*
D03*
Y201366D02*
D03*
X183687Y211366D02*
D03*
Y201366D02*
D03*
X173688Y211366D02*
D03*
Y201366D02*
D03*
X163688Y211366D02*
D03*
Y201366D02*
D03*
X153688Y211366D02*
D03*
Y201366D02*
D03*
X143687Y211366D02*
D03*
Y201366D02*
D03*
X133687Y211366D02*
D03*
Y201366D02*
D03*
X123688Y211366D02*
D03*
Y201366D02*
D03*
X113688Y211366D02*
D03*
Y201366D02*
D03*
X103688Y211366D02*
D03*
Y201366D02*
D03*
X93687Y211366D02*
D03*
Y201366D02*
D03*
X83688Y211366D02*
D03*
Y201366D02*
D03*
X73687Y211366D02*
D03*
Y201366D02*
D03*
X63687Y211366D02*
D03*
Y201366D02*
D03*
X53688Y211366D02*
D03*
Y201366D02*
D03*
X43687Y211366D02*
D03*
Y201366D02*
D03*
X33687Y211366D02*
D03*
D70*
Y201366D02*
D03*
D71*
X158268Y206305D02*
D03*
X218004Y182655D02*
D03*
X181391Y130709D02*
D03*
X183742Y164567D02*
D03*
X199074Y169291D02*
D03*
X192852Y126561D02*
D03*
X176925Y99128D02*
D03*
X180859Y116142D02*
D03*
X204303Y139722D02*
D03*
X229068Y102398D02*
D03*
X231496Y79527D02*
D03*
X231496Y83858D02*
D03*
Y87731D02*
D03*
X231432Y95669D02*
D03*
Y91732D02*
D03*
X169108Y126772D02*
D03*
X215156Y135827D02*
D03*
X188189Y108268D02*
D03*
X181623Y135781D02*
D03*
X225303Y111949D02*
D03*
X189134Y120610D02*
D03*
X172618Y99213D02*
D03*
X232283Y25591D02*
D03*
X122283Y110236D02*
D03*
X111653D02*
D03*
X27795Y127953D02*
D03*
X117952D02*
D03*
X114803Y116142D02*
D03*
X34094Y127953D02*
D03*
X30944Y116142D02*
D03*
X24645D02*
D03*
X234628Y179528D02*
D03*
X238316Y43415D02*
D03*
X149449Y110481D02*
D03*
X244094Y48819D02*
D03*
X235415Y47278D02*
D03*
X236530Y51968D02*
D03*
X229134Y52756D02*
D03*
X214961Y63170D02*
D03*
X211024Y63779D02*
D03*
X166765Y174560D02*
D03*
Y178740D02*
D03*
X154607Y174560D02*
D03*
Y178740D02*
D03*
X160630Y22738D02*
D03*
X98209Y17004D02*
D03*
X39075Y17504D02*
D03*
X106709Y18189D02*
D03*
X52142Y22433D02*
D03*
X89126Y23134D02*
D03*
X77000Y24001D02*
D03*
X62205Y26772D02*
D03*
X185811Y60630D02*
D03*
X192480Y79528D02*
D03*
X186226Y78880D02*
D03*
X198831Y22063D02*
D03*
X187610Y26772D02*
D03*
X184904Y22835D02*
D03*
X207087Y64567D02*
D03*
X80796Y206305D02*
D03*
X233799Y63650D02*
D03*
M02*
