M48
;Layer_Color=9474304
;FILE_FORMAT=2:5
INCH,TZ
;TYPE=PLATED
T1F00S00C0.01181
T2F00S00C0.01575
T3F00S00C0.03543
T4F00S00C0.10827
%
T01
X184904Y22835
X187610Y26772
X198831Y22063
X232283Y25591
X238316Y43415
X235415Y47278
X236530Y51968
X229134Y52756
X233799Y63650
X231496Y79527
X231496Y83858
Y87731
X231432Y91732
Y95669
X229068Y102398
X225303Y111949
X188189Y108268
X180859Y116142
X176925Y99128
X186226Y78880
X192480Y79528
X185811Y60630
X207087Y64567
X211024Y63779
X214961Y63170
X244094Y48819
X160630Y22738
X106709Y18189
X98209Y17004
X89126Y23134
X77000Y24001
X62205Y26772
X52142Y22433
X39075Y17504
X30944Y116142
X24645
X114803
X111653Y110236
X122283
X149449Y110481
X172618Y99213
X169108Y126772
X166765Y174560
Y178740
X154607
Y174560
X158268Y206305
X80796
X117952Y127953
X34094
X27795
X181391Y130709
X181623Y135781
X192852Y126561
X189134Y120610
X204303Y139722
X215156Y135827
X199074Y169291
X183742Y164567
X218004Y182655
X234628Y179528
T02
X199606Y103091
X205512
X211417
Y108996
Y114902
X205512
X199606
Y108996
X205512
T03
X33687Y201366
X43687
X53688
X63687
X73687
X83688
X93687
X103688
X113688
X123688
X133687
X143687
X153688
X163688
X173688
Y211366
X163688
X153688
X143687
X133687
X123688
X113688
X103688
X93687
X83688
X73687
X63687
X53688
X43687
X33687
X183687
X193687
X203688
X213687
X223688
Y201366
X213687
X203688
X193687
X183687
T04
X243335Y13780
X14988
Y206693
X243335
M30
